%!PS-Adobe-3.0 EPSF-3.0
%%Creator: cairo 1.11.2 (http://cairographics.org)
%%CreationDate: Thu Jan 08 11:43:58 2015
%%Pages: 1
%%DocumentData: Clean7Bit
%%LanguageLevel: 2
%%BoundingBox: 0 -1 450 146
%%EndComments
%%BeginProlog
/cairo_eps_state save def
/dict_count countdictstack def
/op_count count 1 sub def
userdict begin
/q { gsave } bind def
/Q { grestore } bind def
/cm { 6 array astore concat } bind def
/w { setlinewidth } bind def
/J { setlinecap } bind def
/j { setlinejoin } bind def
/M { setmiterlimit } bind def
/d { setdash } bind def
/m { moveto } bind def
/l { lineto } bind def
/c { curveto } bind def
/h { closepath } bind def
/re { exch dup neg 3 1 roll 5 3 roll moveto 0 rlineto
      0 exch rlineto 0 rlineto closepath } bind def
/S { stroke } bind def
/f { fill } bind def
/f* { eofill } bind def
/n { newpath } bind def
/W { clip } bind def
/W* { eoclip } bind def
/BT { } bind def
/ET { } bind def
/pdfmark where { pop globaldict /?pdfmark /exec load put }
    { globaldict begin /?pdfmark /pop load def /pdfmark
    /cleartomark load def end } ifelse
/BDC { mark 3 1 roll /BDC pdfmark } bind def
/EMC { mark /EMC pdfmark } bind def
/cairo_store_point { /cairo_point_y exch def /cairo_point_x exch def } def
/Tj { show currentpoint cairo_store_point } bind def
/TJ {
  {
    dup
    type /stringtype eq
    { show } { -0.001 mul 0 cairo_font_matrix dtransform rmoveto } ifelse
  } forall
  currentpoint cairo_store_point
} bind def
/cairo_selectfont { cairo_font_matrix aload pop pop pop 0 0 6 array astore
    cairo_font exch selectfont cairo_point_x cairo_point_y moveto } bind def
/Tf { pop /cairo_font exch def /cairo_font_matrix where
      { pop cairo_selectfont } if } bind def
/Td { matrix translate cairo_font_matrix matrix concatmatrix dup
      /cairo_font_matrix exch def dup 4 get exch 5 get cairo_store_point
      /cairo_font where { pop cairo_selectfont } if } bind def
/Tm { 2 copy 8 2 roll 6 array astore /cairo_font_matrix exch def
      cairo_store_point /cairo_font where { pop cairo_selectfont } if } bind def
/g { setgray } bind def
/rg { setrgbcolor } bind def
/d1 { setcachedevice } bind def
%%EndProlog
%%Page: 1 1
%%BeginPageSetup
%%PageBoundingBox: 0 -1 450 146
%%EndPageSetup
q 0 -1 450 147 rectclip q
0 145.402 450 -146 re W n
0 g
0.800815 w
0 J
0 j
[] 0.0 d
4 M q 1 0 0 -0.814286 0 145.401611 cm
2.711 43.194 23.453 23.453 re S Q
0.800815 w
q 1 0 0 -0.814286 0 145.401611 cm
2.711 66.479 23.453 23.453 re S Q
0.800815 w
q 1 0 0 -0.814286 0 145.401611 cm
2.711 89.759 23.453 23.453 re S Q
0.800815 w
q 1 0 0 -0.814286 0 145.401611 cm
2.711 113.045 23.453 23.453 re S Q
12.805 102.277 m 12.781 102.323 l 12.754 102.37 l 12.73 102.417 l 12.703
 102.46 l 12.648 102.554 l 12.586 102.632 l 12.555 102.675 l 12.52 102.714
 l 12.488 102.753 l 12.418 102.823 l 12.262 102.948 l 12.176 103.003 l 12.137
 103.027 l 12.09 103.046 l 12.043 103.07 l 11.996 103.085 l 11.945 103.105
 l 11.898 103.12 l 11.848 103.136 l 11.793 103.148 l 11.742 103.156 l 11.688
 103.163 l 11.633 103.167 l 11.574 103.171 l 11.516 103.171 l 11.531 102.866
 l 12.438 102.866 12.637 101.718 12.637 101.636 c 12.637 101.546 12.609 
101.464 12.598 101.394 c 11.895 98.644 l 11.824 98.394 11.824 98.366 11.613
 98.124 c 11 97.355 10.422 97.132 10.031 97.132 c 9.328 97.132 9.133 97.902
 9.133 98.448 c 9.133 99.152 9.582 100.87 9.902 101.519 c 10.336 102.347
 10.969 102.866 11.531 102.866 c 11.516 103.171 l 9.875 103.171 8.141 101.113
 8.141 99.066 c 8.141 97.745 8.906 96.823 10.004 96.823 c 10.281 96.823 
10.984 96.882 11.824 97.874 c 11.938 97.284 12.426 96.823 13.098 96.823 
c 13.59 96.823 13.914 97.144 14.137 97.593 c 14.375 98.097 14.559 98.956
 14.559 98.98 c 14.559 99.12 14.43 99.12 14.391 99.12 c 14.25 99.12 14.238
 99.066 14.195 98.87 c 13.957 97.956 13.703 97.132 13.129 97.132 c 12.75
 97.132 12.707 97.495 12.707 97.777 c 12.707 98.085 12.734 98.195 12.887
 98.816 c 13.047 99.402 13.07 99.542 13.199 100.077 c 13.703 102.038 l 13.801
 102.429 13.801 102.46 13.801 102.511 c 13.801 102.753 13.633 102.894 13.395
 102.894 c 13.059 102.894 12.848 102.581 12.805 102.277 c h
f
20.035 98.011 m 20.031 98.21 l 20.027 98.402 l 20.016 98.589 l 20.008 98.769
 l 19.969 99.113 l 19.945 99.273 l 19.914 99.429 l 19.875 99.585 l 19.836
 99.734 l 19.734 100.015 l 19.676 100.156 l 19.605 100.288 l 19.531 100.421
 l 19.492 100.488 l 19.453 100.55 l 19.148 101.003 18.543 101.394 17.754
 101.394 c 17.754 101.12 l 18.285 101.12 18.797 100.8 18.973 100.23 c 19.129
 99.698 19.141 98.991 19.141 98.136 c 19.141 97.413 19.141 96.687 19.012
 96.073 c 18.816 95.179 18.152 94.964 17.754 94.964 c 17.309 94.964 16.707
 95.226 16.512 96.031 c 16.375 96.609 16.375 97.413 16.375 98.136 c 16.375
 98.855 16.375 99.605 16.52 100.136 c 16.727 100.913 17.355 101.12 17.754
 101.12 c 17.754 101.394 l 15.48 101.394 15.48 98.718 15.48 98.011 c 15.48
 97.308 15.48 94.687 17.754 94.687 c 20.035 94.687 20.035 97.308 20.035 
98.011 c h
f
10.832 86.288 m 10.832 86.296 l 10.828 86.3 l 10.828 86.331 l 10.824 86.335
 l 10.816 86.351 l 10.816 86.355 l 10.813 86.366 l 10.809 86.37 l 10.805
 86.378 l 10.793 86.39 l 10.789 86.398 l 10.785 86.402 l 10.777 86.406 l
 10.766 86.417 l 10.758 86.417 l 10.758 86.421 l 10.75 86.425 l 10.738 86.425
 l 10.734 86.429 l 10.727 86.433 l 10.723 86.433 l 10.719 86.437 l 10.695
 86.437 l 10.688 86.441 l 10.676 86.441 l 10.668 86.445 l 10.652 86.445 
l 10.324 86.445 9.305 86.327 8.941 86.304 c 8.824 86.288 8.672 86.277 8.672
 86.023 c 8.672 85.851 8.801 85.851 9.012 85.851 c 9.684 85.851 9.711 85.757
 9.711 85.616 c 9.711 85.515 9.582 85.038 9.512 84.745 c 8.363 80.175 l 
8.199 79.472 8.141 79.249 8.141 78.761 c 8.141 77.429 8.883 76.558 9.922
 76.558 c 9.922 76.866 l 9.441 76.866 8.98 77.245 8.98 78.284 c 8.98 78.55
 8.98 78.816 9.203 79.698 c 9.512 80.991 l 9.598 81.3 9.598 81.323 9.723
 81.48 c 10.41 82.39 11.043 82.601 11.406 82.601 c 11.914 82.601 12.289 
82.183 12.289 81.281 c 12.289 80.456 11.824 78.847 11.574 78.308 c 11.113
 77.37 10.465 76.866 9.922 76.866 c 9.922 76.558 l 11.574 76.558 13.297 
78.648 13.297 80.667 c 13.297 81.941 12.555 82.906 11.434 82.906 c 10.793
 82.906 10.215 82.503 9.793 82.07 c h
f
18.551 77.745 m 18.551 77.945 l 18.547 78.136 l 18.535 78.323 l 18.527 
78.503 l 18.508 78.679 l 18.488 78.847 l 18.461 79.007 l 18.434 79.163 l
 18.395 79.32 l 18.355 79.468 l 18.305 79.613 l 18.254 79.753 l 18.195 79.89
 l 18.125 80.027 l 18.055 80.156 l 18.012 80.222 l 17.973 80.288 l 17.668
 80.741 17.063 81.132 16.273 81.132 c 16.273 80.855 l 16.805 80.855 17.316
 80.534 17.492 79.964 c 17.652 79.433 17.66 78.726 17.66 77.87 c 17.66 77.148
 17.66 76.421 17.531 75.808 c 17.336 74.913 16.672 74.698 16.273 74.698 
c 15.828 74.698 15.227 74.964 15.031 75.769 c 14.895 76.343 14.895 77.148
 14.895 77.87 c 14.895 78.589 14.895 79.339 15.039 79.874 c 15.246 80.648
 15.875 80.855 16.273 80.855 c 16.273 81.132 l 14 81.132 14 78.456 14 77.745
 c 14 77.042 14 74.421 16.273 74.421 c 18.551 74.421 18.551 77.042 18.551
 77.745 c h
f
13.113 64.671 m 12.953 64.671 l 12.91 64.667 l 12.871 64.663 l 12.832 64.656
 l 12.816 64.652 l 12.777 64.644 l 12.758 64.636 l 12.738 64.632 l 12.68
 64.609 l 12.664 64.601 l 12.625 64.577 l 12.609 64.566 l 12.59 64.55 l 
12.57 64.542 l 12.551 64.523 l 12.531 64.511 l 12.516 64.491 l 12.496 64.472
 l 12.27 64.261 12.246 64.027 12.246 63.929 c 12.246 63.589 12.496 63.437
 12.762 63.437 c 13.168 63.437 13.551 63.777 13.551 64.331 c 13.551 65.019
 12.891 65.538 11.895 65.538 c 10.004 65.538 8.141 63.534 8.141 61.558 c
 8.141 60.296 8.953 59.187 10.406 59.187 c 12.41 59.187 13.59 60.675 13.59
 60.843 c 13.59 60.925 13.504 61.027 13.426 61.027 c 13.355 61.027 13.324
 60.995 13.238 60.886 c 12.129 59.499 10.605 59.499 10.438 59.499 c 9.555
 59.499 9.176 60.183 9.176 61.027 c 9.176 61.597 9.453 62.96 9.934 63.827
 c 10.367 64.628 11.137 65.23 11.906 65.23 c 12.387 65.23 12.918 65.05 13.113
 64.671 c h
f
18.703 60.374 m 18.699 60.577 l 18.695 60.769 l 18.688 60.952 l 18.676 
61.132 l 18.656 61.308 l 18.637 61.476 l 18.613 61.636 l 18.582 61.792 l
 18.547 61.948 l 18.504 62.097 l 18.457 62.241 l 18.402 62.382 l 18.344 
62.519 l 18.273 62.656 l 18.203 62.788 l 18.164 62.851 l 18.121 62.917 l
 17.816 63.37 17.211 63.761 16.422 63.761 c 16.422 63.484 l 16.957 63.484
 17.465 63.163 17.641 62.593 c 17.801 62.066 17.809 61.359 17.809 60.503
 c 17.809 59.781 17.809 59.054 17.68 58.437 c 17.484 57.546 16.82 57.327
 16.422 57.327 c 15.977 57.327 15.375 57.593 15.18 58.398 c 15.043 58.976
 15.043 59.781 15.043 60.503 c 15.043 61.222 15.043 61.968 15.188 62.503
 c 15.398 63.277 16.023 63.484 16.422 63.484 c 16.422 63.761 l 14.148 63.761
 14.148 61.085 14.148 60.374 c 14.148 59.671 14.148 57.054 16.422 57.054
 c 18.703 57.054 18.703 59.671 18.703 60.374 c h
f
14.809 49.007 m 14.809 49.031 l 14.805 49.034 l 14.805 49.054 l 14.801 
49.058 l 14.793 49.073 l 14.793 49.081 l 14.785 49.085 l 14.781 49.097 l
 14.773 49.105 l 14.766 49.116 l 14.762 49.116 l 14.754 49.124 l 14.75 49.124
 l 14.738 49.136 l 14.734 49.136 l 14.73 49.14 l 14.723 49.144 l 14.719 
49.144 l 14.711 49.148 l 14.703 49.148 l 14.688 49.156 l 14.652 49.156 l
 14.645 49.159 l 14.629 49.159 l 14.418 49.159 13.086 49.031 12.848 49.007
 c 12.734 48.991 12.648 48.921 12.648 48.738 c 12.648 48.57 12.777 48.57
 12.988 48.57 c 13.66 48.57 13.688 48.472 13.688 48.331 c 13.648 48.05 l
 12.805 44.73 l 12.555 45.245 12.145 45.624 11.516 45.624 c 11.531 45.316
 l 12.438 45.316 12.637 44.167 12.637 44.085 c 12.637 43.995 12.609 43.913
 12.598 43.843 c 11.895 41.097 l 11.824 40.843 11.824 40.82 11.613 40.577
 c 11 39.808 10.422 39.585 10.031 39.585 c 9.328 39.585 9.133 40.351 9.133
 40.902 c 9.133 41.601 9.582 43.323 9.902 43.972 c 10.336 44.8 10.969 45.316
 11.531 45.316 c 11.516 45.624 l 9.875 45.624 8.141 43.566 8.141 41.519 
c 8.141 40.198 8.906 39.273 10.004 39.273 c 10.281 39.273 10.984 39.335 
11.824 40.327 c 11.938 39.738 12.426 39.273 13.098 39.273 c 13.59 39.273
 13.914 39.597 14.137 40.046 c 14.375 40.55 14.559 41.406 14.559 41.433 
c 14.559 41.573 14.43 41.573 14.391 41.573 c 14.25 41.573 14.238 41.519 
14.195 41.32 c 13.957 40.409 13.703 39.585 13.129 39.585 c 12.75 39.585 
12.707 39.948 12.707 40.23 c 12.707 40.562 12.734 40.663 12.789 40.902 c
 h
f
19.934 40.46 m 19.93 40.663 l 19.926 40.855 l 19.914 41.038 l 19.906 41.218
 l 19.887 41.394 l 19.867 41.562 l 19.844 41.722 l 19.813 41.882 l 19.773
 42.034 l 19.734 42.183 l 19.684 42.327 l 19.633 42.468 l 19.574 42.605 
l 19.504 42.741 l 19.434 42.874 l 19.391 42.937 l 19.352 43.003 l 19.051
 43.456 18.441 43.847 17.652 43.847 c 17.652 43.57 l 18.184 43.57 18.699
 43.249 18.871 42.679 c 19.031 42.152 19.039 41.445 19.039 40.589 c 19.039
 39.866 19.039 39.14 18.91 38.523 c 18.715 37.632 18.051 37.413 17.652 37.413
 c 17.207 37.413 16.605 37.679 16.41 38.484 c 16.273 39.062 16.273 39.866
 16.273 40.589 c 16.273 41.308 16.273 42.054 16.418 42.589 c 16.625 43.363
 17.254 43.57 17.652 43.57 c 17.652 43.847 l 15.379 43.847 15.379 41.171
 15.379 40.46 c 15.379 39.757 15.379 37.14 17.652 37.14 c 19.934 37.14 19.934
 39.757 19.934 40.46 c h
f
383.316 102.277 m 383.289 102.323 l 383.266 102.37 l 383.238 102.417 l 
383.215 102.46 l 383.16 102.554 l 383.098 102.632 l 383.066 102.675 l 382.996
 102.753 l 382.965 102.788 l 382.926 102.823 l 382.891 102.855 l 382.773
 102.948 l 382.688 103.003 l 382.645 103.027 l 382.602 103.046 l 382.555
 103.07 l 382.504 103.085 l 382.457 103.105 l 382.41 103.12 l 382.359 103.136
 l 382.305 103.148 l 382.254 103.156 l 382.199 103.163 l 382.141 103.167
 l 382.086 103.171 l 382.027 103.171 l 382.043 102.866 l 382.949 102.866
 383.148 101.718 383.148 101.636 c 383.148 101.546 383.121 101.464 383.109
 101.394 c 382.402 98.644 l 382.332 98.394 382.332 98.366 382.121 98.124
 c 381.508 97.355 380.934 97.132 380.543 97.132 c 379.84 97.132 379.645 
97.902 379.645 98.448 c 379.645 99.152 380.09 100.87 380.414 101.519 c 380.848
 102.347 381.48 102.866 382.043 102.866 c 382.027 103.171 l 380.387 103.171
 378.648 101.113 378.648 99.066 c 378.648 97.745 379.418 96.823 380.512 
96.823 c 380.793 96.823 381.496 96.882 382.332 97.874 c 382.449 97.284 382.938
 96.823 383.609 96.823 c 384.102 96.823 384.426 97.144 384.648 97.593 c 
384.887 98.097 385.07 98.956 385.07 98.98 c 385.07 99.12 384.941 99.12 384.902
 99.12 c 384.762 99.12 384.75 99.066 384.707 98.87 c 384.469 97.956 384.215
 97.132 383.641 97.132 c 383.262 97.132 383.219 97.495 383.219 97.777 c 
383.219 98.085 383.246 98.195 383.398 98.816 c 383.559 99.402 383.582 99.542
 383.711 100.077 c 384.215 102.038 l 384.313 102.429 384.313 102.46 384.313
 102.511 c 384.313 102.753 384.145 102.894 383.902 102.894 c 383.57 102.894
 383.359 102.581 383.316 102.277 c h
f
388.766 101.12 m 388.766 101.253 l 388.762 101.261 l 388.762 101.273 l 
388.758 101.284 l 388.758 101.288 l 388.754 101.296 l 388.754 101.316 l 
388.746 101.323 l 388.742 101.335 l 388.734 101.343 l 388.73 101.351 l 388.715
 101.366 l 388.699 101.374 l 388.664 101.386 l 388.652 101.386 l 388.645
 101.39 l 388.633 101.39 l 388.629 101.394 l 388.473 101.394 l 387.844 100.777
 386.957 100.769 386.551 100.769 c 386.551 100.417 l 386.789 100.417 387.438
 100.417 387.969 100.691 c 387.969 95.691 l 387.969 95.363 387.969 95.238
 386.992 95.238 c 386.621 95.238 l 386.621 94.886 l 386.797 94.894 388 94.925
 388.367 94.925 c 388.672 94.925 389.906 94.894 390.121 94.886 c 390.121
 95.238 l 389.75 95.238 l 388.766 95.238 388.766 95.363 388.766 95.691 c
 h
f
392.527 98.089 m 392.527 98.386 l 392.535 98.534 l 392.543 98.679 l 392.555
 98.82 l 392.57 98.96 l 392.586 99.097 l 392.633 99.363 l 392.664 99.491
 l 392.699 99.624 l 392.738 99.745 l 392.762 99.808 l 392.789 99.866 l 392.813
 99.929 l 392.84 99.988 l 392.902 100.105 l 392.93 100.159 l 392.965 100.218
 l 393.301 100.749 393.828 101.113 394.457 101.113 c 394.754 101.113 395.145
 101.034 395.34 100.769 c 395.094 100.749 394.887 100.581 394.887 100.3 
c 394.887 100.05 395.055 99.835 395.348 99.835 c 395.645 99.835 395.82 100.034
 395.82 100.316 c 395.82 100.886 395.406 101.394 394.434 101.394 c 393.023
 101.394 391.582 100.097 391.582 97.995 c 391.582 95.452 392.777 94.687 
393.859 94.687 c 395.055 94.687 396.09 95.601 396.09 96.886 c 396.09 98.128
 395.105 99.05 393.957 99.05 c 393.906 98.777 l 394.359 98.777 394.664 98.597
 394.902 98.238 c 395.145 97.866 395.152 97.452 395.152 96.886 c 395.152
 96.327 395.152 95.913 394.887 95.531 c 394.652 95.187 394.34 95.003 393.859
 95.003 c 393.367 95.003 392.984 95.284 392.777 95.718 c 392.633 96.011 
392.555 96.503 392.555 97.093 c 392.555 98.042 393.125 98.777 393.906 98.777
 c 393.957 99.05 l 393.172 99.05 392.742 98.534 392.527 98.089 c h
f
381.344 86.288 m 381.344 86.296 l 381.34 86.3 l 381.34 86.32 l 381.336 
86.327 l 381.336 86.335 l 381.328 86.351 l 381.328 86.355 l 381.324 86.366
 l 381.32 86.37 l 381.316 86.378 l 381.297 86.398 l 381.297 86.402 l 381.289
 86.406 l 381.285 86.406 l 381.285 86.409 l 381.277 86.413 l 381.277 86.417
 l 381.27 86.417 l 381.262 86.425 l 381.25 86.425 l 381.246 86.429 l 381.238
 86.433 l 381.234 86.433 l 381.227 86.437 l 381.207 86.437 l 381.199 86.441
 l 381.188 86.441 l 381.176 86.445 l 381.164 86.445 l 380.836 86.445 379.816
 86.327 379.453 86.304 c 379.336 86.288 379.184 86.277 379.184 86.023 c 
379.184 85.851 379.313 85.851 379.523 85.851 c 380.195 85.851 380.219 85.757
 380.219 85.616 c 380.219 85.515 380.094 85.038 380.023 84.745 c 378.875
 80.175 l 378.711 79.472 378.648 79.249 378.648 78.761 c 378.648 77.429 
379.395 76.558 380.43 76.558 c 380.43 76.866 l 379.953 76.866 379.492 77.245
 379.492 78.284 c 379.492 78.55 379.492 78.816 379.715 79.698 c 380.023 
80.991 l 380.109 81.3 380.109 81.323 380.234 81.48 c 380.922 82.39 381.555
 82.601 381.918 82.601 c 382.426 82.601 382.801 82.183 382.801 81.281 c 
382.801 80.456 382.336 78.847 382.086 78.308 c 381.625 77.37 380.977 76.866
 380.43 76.866 c 380.43 76.558 l 382.086 76.558 383.809 78.648 383.809 80.667
 c 383.809 81.941 383.066 82.906 381.945 82.906 c 381.305 82.906 380.727
 82.503 380.305 82.07 c h
f
387.285 80.855 m 387.285 80.988 l 387.281 80.995 l 387.281 81.011 l 387.277
 81.019 l 387.277 81.023 l 387.273 81.031 l 387.273 81.038 l 387.266 81.062
 l 387.262 81.07 l 387.254 81.077 l 387.246 81.093 l 387.234 81.101 l 387.227
 81.105 l 387.215 81.113 l 387.207 81.113 l 387.195 81.116 l 387.184 81.124
 l 387.152 81.124 l 387.148 81.128 l 387.113 81.128 l 387.105 81.132 l 386.992
 81.132 l 386.363 80.511 385.473 80.503 385.07 80.503 c 385.07 80.152 l 
385.309 80.152 385.957 80.152 386.488 80.425 c 386.488 75.425 l 386.488 
75.097 386.488 74.972 385.512 74.972 c 385.141 74.972 l 385.141 74.62 l 
385.316 74.628 386.52 74.659 386.887 74.659 c 387.191 74.659 388.426 74.628
 388.641 74.62 c 388.641 74.972 l 388.27 74.972 l 387.285 74.972 387.285
 75.097 387.285 75.425 c h
f
391.047 77.823 m 391.047 78.124 l 391.063 78.413 l 391.074 78.558 l 391.086
 78.695 l 391.125 78.968 l 391.152 79.101 l 391.18 79.23 l 391.219 79.359
 l 391.262 79.484 l 391.281 79.542 l 391.309 79.605 l 391.332 79.663 l 391.359
 79.726 l 391.391 79.784 l 391.453 79.894 l 391.484 79.952 l 391.82 80.488
 392.348 80.847 392.977 80.847 c 393.273 80.847 393.664 80.769 393.859 80.503
 c 393.613 80.488 393.406 80.32 393.406 80.034 c 393.406 79.784 393.574 
79.573 393.867 79.573 c 394.164 79.573 394.34 79.769 394.34 80.05 c 394.34
 80.62 393.926 81.132 392.953 81.132 c 391.543 81.132 390.102 79.835 390.102
 77.73 c 390.102 75.187 391.297 74.421 392.379 74.421 c 393.574 74.421 394.609
 75.335 394.609 76.62 c 394.609 77.863 393.625 78.788 392.477 78.788 c 392.426
 78.511 l 392.879 78.511 393.184 78.335 393.422 77.972 c 393.664 77.601 
393.672 77.187 393.672 76.62 c 393.672 76.062 393.672 75.648 393.406 75.265
 c 393.172 74.925 392.859 74.738 392.379 74.738 c 391.883 74.738 391.504
 75.019 391.297 75.456 c 391.152 75.745 391.07 76.238 391.07 76.827 c 391.07
 77.777 391.645 78.511 392.426 78.511 c 392.477 78.788 l 391.691 78.788 
391.262 78.269 391.047 77.823 c h
f
383.625 64.671 m 383.461 64.671 l 383.383 64.663 l 383.344 64.656 l 383.328
 64.652 l 383.289 64.644 l 383.27 64.636 l 383.25 64.632 l 383.191 64.609
 l 383.176 64.601 l 383.117 64.566 l 383.098 64.55 l 383.078 64.542 l 383.063
 64.523 l 383.043 64.511 l 383.027 64.491 l 383.008 64.472 l 382.781 64.261
 382.758 64.027 382.758 63.929 c 382.758 63.589 383.008 63.437 383.273 63.437
 c 383.68 63.437 384.063 63.777 384.063 64.331 c 384.063 65.019 383.402 
65.538 382.402 65.538 c 380.512 65.538 378.648 63.534 378.648 61.558 c 378.648
 60.296 379.465 59.187 380.918 59.187 c 382.922 59.187 384.102 60.675 384.102
 60.843 c 384.102 60.925 384.016 61.027 383.934 61.027 c 383.863 61.027 
383.836 60.995 383.75 60.886 c 382.641 59.499 381.117 59.499 380.949 59.499
 c 380.066 59.499 379.688 60.183 379.688 61.027 c 379.688 61.597 379.965
 62.96 380.441 63.827 c 380.879 64.628 381.648 65.23 382.418 65.23 c 382.898
 65.23 383.43 65.05 383.625 64.671 c h
f
387.438 63.484 m 387.438 63.593 l 387.434 63.601 l 387.434 63.616 l 387.43
 63.624 l 387.43 63.64 l 387.426 63.648 l 387.426 63.667 l 387.422 63.679
 l 387.414 63.691 l 387.406 63.706 l 387.398 63.718 l 387.395 63.726 l 387.387
 63.73 l 387.375 63.738 l 387.367 63.741 l 387.355 63.745 l 387.344 63.745
 l 387.332 63.753 l 387.32 63.753 l 387.313 63.757 l 387.266 63.757 l 387.254
 63.761 l 387.145 63.761 l 386.512 63.144 385.625 63.132 385.223 63.132 
c 385.223 62.781 l 385.457 62.781 386.105 62.781 386.641 63.054 c 386.641
 58.054 l 386.641 57.73 386.641 57.601 385.66 57.601 c 385.293 57.601 l 
385.293 57.249 l 385.465 57.257 386.672 57.288 387.035 57.288 c 387.34 57.288
 388.574 57.257 388.793 57.249 c 388.793 57.601 l 388.418 57.601 l 387.438
 57.601 387.438 57.73 387.438 58.054 c h
f
391.195 60.456 m 391.195 60.605 l 391.199 60.753 l 391.203 60.898 l 391.211
 61.042 l 391.223 61.187 l 391.254 61.46 l 391.277 61.597 l 391.301 61.73
 l 391.332 61.859 l 391.367 61.988 l 391.41 62.113 l 391.43 62.175 l 391.457
 62.234 l 391.48 62.296 l 391.512 62.355 l 391.539 62.413 l 391.57 62.468
 l 391.602 62.527 l 391.633 62.581 l 391.969 63.116 392.496 63.476 393.125
 63.476 c 393.422 63.476 393.813 63.398 394.008 63.132 c 393.766 63.116 
393.555 62.948 393.555 62.663 c 393.555 62.417 393.727 62.202 394.016 62.202
 c 394.313 62.202 394.488 62.398 394.488 62.679 c 394.488 63.253 394.078
 63.761 393.102 63.761 c 391.691 63.761 390.25 62.464 390.25 60.359 c 390.25
 57.82 391.445 57.054 392.527 57.054 c 393.727 57.054 394.762 57.968 394.762
 59.249 c 394.762 60.495 393.773 61.417 392.625 61.417 c 392.578 61.14 l
 393.031 61.14 393.332 60.964 393.574 60.605 c 393.813 60.234 393.82 59.82
 393.82 59.249 c 393.82 58.695 393.82 58.281 393.555 57.898 c 393.32 57.554
 393.008 57.366 392.527 57.366 c 392.035 57.366 391.652 57.648 391.445 58.085
 c 391.301 58.374 391.223 58.866 391.223 59.46 c 391.223 60.406 391.793 
61.14 392.578 61.14 c 392.625 61.417 l 391.844 61.417 391.41 60.898 391.195
 60.456 c h
f
385.32 48.656 m 385.32 48.679 l 385.316 48.687 l 385.316 48.691 l 385.313
 48.698 l 385.313 48.706 l 385.309 48.718 l 385.305 48.722 l 385.293 48.745
 l 385.281 48.757 l 385.277 48.765 l 385.273 48.769 l 385.27 48.769 l 385.262
 48.777 l 385.258 48.777 l 385.25 48.784 l 385.234 48.792 l 385.23 48.792
 l 385.223 48.796 l 385.211 48.796 l 385.207 48.8 l 385.199 48.804 l 385.188
 48.804 l 385.18 48.808 l 385.141 48.808 l 384.93 48.808 383.598 48.679 
383.359 48.656 c 383.246 48.64 383.16 48.57 383.16 48.386 c 383.16 48.218
 383.289 48.218 383.5 48.218 c 384.172 48.218 384.199 48.124 384.199 47.984
 c 384.16 47.702 l 383.316 44.378 l 383.066 44.894 382.656 45.273 382.027
 45.273 c 382.043 44.964 l 382.949 44.964 383.148 43.816 383.148 43.734 
c 383.148 43.644 383.121 43.566 383.109 43.495 c 382.402 40.745 l 382.332
 40.495 382.332 40.468 382.121 40.226 c 381.508 39.456 380.934 39.234 380.543
 39.234 c 379.84 39.234 379.645 40.003 379.645 40.55 c 379.645 41.249 380.09
 42.972 380.414 43.62 c 380.848 44.448 381.48 44.964 382.043 44.964 c 382.027
 45.273 l 380.387 45.273 378.648 43.214 378.648 41.167 c 378.648 39.847 
379.418 38.925 380.512 38.925 c 380.793 38.925 381.496 38.984 382.332 39.976
 c 382.449 39.386 382.938 38.925 383.609 38.925 c 384.102 38.925 384.426
 39.245 384.648 39.695 c 384.887 40.198 385.07 41.058 385.07 41.081 c 385.07
 41.222 384.941 41.222 384.902 41.222 c 384.762 41.222 384.75 41.167 384.707
 40.968 c 384.469 40.058 384.215 39.234 383.641 39.234 c 383.262 39.234 
383.219 39.597 383.219 39.878 c 383.219 40.214 383.246 40.312 383.301 40.55
 c h
f
388.664 43.222 m 388.664 43.363 l 388.66 43.37 l 388.66 43.374 l 388.656
 43.382 l 388.656 43.39 l 388.652 43.398 l 388.652 43.413 l 388.645 43.425
 l 388.641 43.433 l 388.637 43.445 l 388.629 43.452 l 388.625 43.46 l 388.613
 43.464 l 388.605 43.472 l 388.598 43.476 l 388.563 43.488 l 388.551 43.488
 l 388.543 43.491 l 388.535 43.491 l 388.527 43.495 l 388.371 43.495 l 387.742
 42.878 386.855 42.87 386.449 42.87 c 386.449 42.519 l 386.688 42.519 387.336
 42.519 387.871 42.788 c 387.871 37.788 l 387.871 37.464 387.871 37.335 
386.891 37.335 c 386.52 37.335 l 386.52 36.984 l 386.695 36.991 387.898 
37.023 388.266 37.023 c 388.57 37.023 389.805 36.991 390.023 36.984 c 390.023
 37.335 l 389.648 37.335 l 388.664 37.335 388.664 37.464 388.664 37.788 
c h
f
392.426 40.191 m 392.426 40.339 l 392.434 40.636 l 392.441 40.777 l 392.453
 40.921 l 392.469 41.058 l 392.484 41.198 l 392.531 41.464 l 392.563 41.593
 l 392.598 41.722 l 392.641 41.847 l 392.66 41.909 l 392.688 41.968 l 392.711
 42.031 l 392.738 42.089 l 392.801 42.206 l 392.828 42.261 l 392.867 42.316
 l 393.199 42.851 393.727 43.21 394.355 43.21 c 394.652 43.21 395.043 43.132
 395.238 42.87 c 394.992 42.851 394.785 42.683 394.785 42.398 c 394.785 
42.152 394.953 41.937 395.246 41.937 c 395.543 41.937 395.719 42.136 395.719
 42.417 c 395.719 42.988 395.305 43.495 394.332 43.495 c 392.922 43.495 
391.48 42.198 391.48 40.093 c 391.48 37.554 392.676 36.788 393.758 36.788
 c 394.953 36.788 395.992 37.702 395.992 38.984 c 395.992 40.23 395.004 
41.152 393.855 41.152 c 393.805 40.878 l 394.258 40.878 394.563 40.698 394.805
 40.339 c 395.043 39.968 395.051 39.554 395.051 38.984 c 395.051 38.429 
395.051 38.015 394.785 37.632 c 394.551 37.288 394.238 37.105 393.758 37.105
 c 393.266 37.105 392.883 37.386 392.676 37.82 c 392.531 38.109 392.453 
38.605 392.453 39.195 c 392.453 40.144 393.023 40.878 393.805 40.878 c 393.855
 41.152 l 393.07 41.152 392.641 40.636 392.426 40.191 c h
f
13.082 12.519 m 13.094 12.57 l 13.105 12.624 l 13.121 12.675 l 13.133 12.718
 l 13.145 12.765 l 13.16 12.808 l 13.172 12.847 l 13.188 12.886 l 13.207
 12.921 l 13.223 12.956 l 13.242 12.988 l 13.266 13.015 l 13.289 13.046 
l 13.313 13.073 l 13.344 13.093 l 13.375 13.116 l 13.445 13.156 l 13.488
 13.175 l 13.535 13.191 l 13.582 13.202 l 13.637 13.218 l 13.668 13.222 
l 13.695 13.23 l 13.727 13.234 l 13.758 13.241 l 13.793 13.241 l 13.824 
13.245 l 13.859 13.253 l 13.938 13.261 l 14.02 13.261 l 14.105 13.269 l 
14.195 13.269 l 14.246 13.273 l 14.457 13.273 l 14.883 13.273 15.012 13.273
 15.012 13.601 c 15.012 13.784 14.832 13.784 14.781 13.784 c 14.324 13.784
 13.145 13.73 12.684 13.73 c 12.207 13.73 11.043 13.784 10.566 13.784 c 
10.438 13.784 10.254 13.784 10.254 13.452 c 10.254 13.273 10.402 13.273 
10.715 13.273 c 10.75 13.273 11.063 13.273 11.34 13.241 c 11.633 13.206 
11.781 13.191 11.781 12.98 c 11.781 12.913 11.766 12.878 11.715 12.667 c
 10.73 8.663 l 5.727 8.663 l 6.699 12.519 l 6.844 13.109 6.891 13.273 8.07
 13.273 c 8.5 13.273 8.633 13.273 8.633 13.601 c 8.633 13.784 8.453 13.784
 8.402 13.784 c 7.941 13.784 6.762 13.73 6.305 13.73 c 5.828 13.73 4.66 
13.784 4.188 13.784 c 4.055 13.784 3.871 13.784 3.871 13.452 c 3.871 13.273
 4.023 13.273 4.332 13.273 c 4.367 13.273 4.676 13.273 4.961 13.241 c 5.254
 13.206 5.402 13.191 5.402 12.98 c 5.402 12.913 5.383 12.863 5.336 12.667
 c 3.137 3.859 l 2.973 3.214 2.938 3.089 1.641 3.089 c 1.348 3.089 1.199
 3.089 1.199 2.757 c 1.199 2.577 1.398 2.577 1.43 2.577 c 1.887 2.577 3.055
 2.628 3.516 2.628 c 3.859 2.628 4.219 2.605 4.563 2.605 c 4.922 2.605 5.281
 2.577 5.629 2.577 c 5.762 2.577 5.957 2.577 5.957 2.906 c 5.957 3.089 5.809
 3.089 5.5 3.089 c 4.895 3.089 4.438 3.089 4.438 3.382 c 4.438 3.476 4.465
 3.558 4.48 3.656 c 5.598 8.156 l 10.598 8.156 l 9.91 5.433 9.535 3.874 
9.469 3.628 c 9.305 3.101 8.992 3.089 7.977 3.089 c 7.73 3.089 7.586 3.089
 7.586 2.757 c 7.586 2.577 7.777 2.577 7.813 2.577 c 8.273 2.577 9.434 2.628
 9.891 2.628 c 10.238 2.628 10.598 2.605 10.941 2.605 c 11.309 2.605 11.668
 2.577 12.012 2.577 c 12.141 2.577 12.34 2.577 12.34 2.906 c 12.34 3.089
 12.195 3.089 11.879 3.089 c 11.273 3.089 10.816 3.089 10.816 3.382 c 10.816
 3.476 10.844 3.558 10.859 3.656 c h
f
17.914 7.3 m 17.914 7.316 l 17.91 7.335 l 17.91 7.351 l 17.906 7.37 l 17.906
 7.39 l 17.898 7.409 l 17.895 7.425 l 17.887 7.445 l 17.883 7.464 l 17.871
 7.48 l 17.863 7.499 l 17.852 7.515 l 17.844 7.534 l 17.828 7.554 l 17.82
 7.57 l 17.801 7.585 l 17.789 7.601 l 17.773 7.62 l 17.758 7.632 l 17.738
 7.648 l 17.719 7.659 l 17.703 7.671 l 17.68 7.683 l 17.66 7.695 l 17.637
 7.702 l 17.613 7.714 l 17.59 7.722 l 17.566 7.726 l 17.539 7.73 l 17.508
 7.734 l 17.48 7.738 l 17.449 7.738 l 17.145 7.738 16.809 7.437 16.809 7.105
 c 16.809 6.909 16.957 6.667 17.273 6.667 c 17.602 6.667 17.914 6.991 17.914
 7.3 c h
f
15.574 1.472 m 15.555 1.413 l 15.535 1.359 l 15.512 1.277 l 15.504 1.245
 l 15.496 1.218 l 15.492 1.187 l 15.484 1.156 l 15.48 1.124 l 15.473 1.093
 l 15.473 0.988 l 15.473 0.445 15.93 0.015 16.555 0.015 c 17.703 0.015 18.215
 1.593 18.215 1.769 c 18.215 1.917 18.063 1.917 18.027 1.917 c 17.867 1.917
 17.852 1.851 17.805 1.726 c 17.543 0.804 17.039 0.335 16.59 0.335 c 16.359
 0.335 16.305 0.484 16.305 0.738 c 16.305 0.995 16.387 1.218 16.488 1.472
 c 16.602 1.781 16.73 2.085 16.855 2.386 c 16.957 2.663 17.375 3.71 17.422
 3.847 c 17.449 3.96 17.484 4.097 17.484 4.214 c 17.484 4.753 17.027 5.187
 16.395 5.187 c 15.262 5.187 14.734 3.628 14.734 3.429 c 14.734 3.281 14.895
 3.281 14.93 3.281 c 15.09 3.281 15.098 3.339 15.137 3.464 c 15.434 4.452
 15.938 4.866 16.359 4.866 c 16.543 4.866 16.648 4.773 16.648 4.464 c 16.648
 4.202 16.582 4.031 16.293 3.32 c h
f
27.352 2.722 m 27.465 2.722 l 27.484 2.726 l 27.504 2.726 l 27.523 2.73
 l 27.559 2.73 l 27.598 2.738 l 27.617 2.745 l 27.637 2.749 l 27.652 2.753
 l 27.668 2.761 l 27.684 2.773 l 27.703 2.777 l 27.727 2.8 l 27.742 2.812
 l 27.766 2.835 l 27.77 2.847 l 27.781 2.859 l 27.785 2.87 l 27.793 2.886
 l 27.797 2.898 l 27.801 2.906 l 27.801 2.917 l 27.805 2.925 l 27.805 2.948
 l 27.809 2.96 l 27.809 2.999 l 27.809 3.281 27.551 3.281 27.352 3.281 c
 20.516 3.281 l 20.328 3.281 20.059 3.281 20.059 3.007 c 20.059 2.722 20.316
 2.722 20.516 2.722 c h
f
32.895 7.425 m 32.895 7.527 l 32.891 7.538 l 32.891 7.577 l 32.887 7.589
 l 32.887 7.605 l 32.883 7.616 l 32.883 7.64 l 32.875 7.652 l 32.871 7.663
 l 32.863 7.675 l 32.859 7.683 l 32.852 7.695 l 32.836 7.71 l 32.824 7.718
 l 32.789 7.73 l 32.773 7.738 l 32.758 7.738 l 32.75 7.741 l 32.738 7.741
 l 32.734 7.745 l 32.547 7.745 l 31.813 7.023 30.773 7.011 30.305 7.011 
c 30.305 6.601 l 30.578 6.601 31.336 6.601 31.961 6.921 c 31.961 1.07 l 
31.961 0.687 31.961 0.538 30.816 0.538 c 30.387 0.538 l 30.387 0.128 l 30.59
 0.136 32 0.171 32.426 0.171 c 32.781 0.171 34.227 0.136 34.477 0.128 c 
34.477 0.538 l 34.043 0.538 l 32.895 0.538 32.895 0.687 32.895 1.07 c h
f
411.668 12.519 m 411.68 12.57 l 411.695 12.624 l 411.707 12.675 l 411.719
 12.718 l 411.734 12.765 l 411.746 12.808 l 411.758 12.847 l 411.777 12.886
 l 411.809 12.956 l 411.828 12.988 l 411.852 13.015 l 411.875 13.046 l 411.902
 13.073 l 411.93 13.093 l 411.961 13.116 l 412.031 13.156 l 412.074 13.175
 l 412.121 13.191 l 412.172 13.202 l 412.223 13.218 l 412.254 13.222 l 412.281
 13.23 l 412.313 13.234 l 412.344 13.241 l 412.379 13.241 l 412.41 13.245
 l 412.449 13.253 l 412.484 13.257 l 412.523 13.261 l 412.605 13.261 l 412.691
 13.269 l 412.785 13.269 l 412.832 13.273 l 413.043 13.273 l 413.473 13.273
 413.602 13.273 413.602 13.601 c 413.602 13.784 413.418 13.784 413.371 13.784
 c 412.91 13.784 411.734 13.73 411.27 13.73 c 410.793 13.73 409.629 13.784
 409.156 13.784 c 409.027 13.784 408.844 13.784 408.844 13.452 c 408.844
 13.273 408.988 13.273 409.305 13.273 c 409.336 13.273 409.648 13.273 409.926
 13.241 c 410.219 13.206 410.371 13.191 410.371 12.98 c 410.371 12.913 410.352
 12.878 410.301 12.667 c 409.32 8.663 l 404.313 8.663 l 405.285 12.519 l
 405.43 13.109 405.48 13.273 406.66 13.273 c 407.086 13.273 407.223 13.273
 407.223 13.601 c 407.223 13.784 407.039 13.784 406.988 13.784 c 406.531
 13.784 405.348 13.73 404.891 13.73 c 404.414 13.73 403.246 13.784 402.777
 13.784 c 402.641 13.784 402.461 13.784 402.461 13.452 c 402.461 13.273 
402.613 13.273 402.918 13.273 c 402.953 13.273 403.262 13.273 403.547 13.241
 c 403.84 13.206 403.988 13.191 403.988 12.98 c 403.988 12.913 403.969 12.863
 403.922 12.667 c 401.727 3.859 l 401.563 3.214 401.523 3.089 400.227 3.089
 c 399.934 3.089 399.785 3.089 399.785 2.757 c 399.785 2.577 399.988 2.577
 400.016 2.577 c 400.473 2.577 401.645 2.628 402.102 2.628 c 402.445 2.628
 402.805 2.605 403.152 2.605 c 403.512 2.605 403.871 2.577 404.215 2.577
 c 404.352 2.577 404.543 2.577 404.543 2.906 c 404.543 3.089 404.395 3.089
 404.086 3.089 c 403.48 3.089 403.023 3.089 403.023 3.382 c 403.023 3.476
 403.051 3.558 403.07 3.656 c 404.184 8.156 l 409.184 8.156 l 408.496 5.433
 408.121 3.874 408.055 3.628 c 407.895 3.101 407.582 3.089 406.563 3.089
 c 406.316 3.089 406.172 3.089 406.172 2.757 c 406.172 2.577 406.367 2.577
 406.398 2.577 c 406.859 2.577 408.023 2.628 408.48 2.628 c 408.824 2.628
 409.184 2.605 409.531 2.605 c 409.895 2.605 410.254 2.577 410.602 2.577
 c 410.73 2.577 410.926 2.577 410.926 2.906 c 410.926 3.089 410.781 3.089
 410.465 3.089 c 409.859 3.089 409.402 3.089 409.402 3.382 c 409.402 3.476
 409.43 3.558 409.449 3.656 c h
f
416.5 7.3 m 416.5 7.351 l 416.492 7.39 l 416.484 7.409 l 416.48 7.425 l
 416.477 7.445 l 416.469 7.464 l 416.457 7.48 l 416.449 7.499 l 416.438 
7.515 l 416.43 7.534 l 416.414 7.554 l 416.406 7.57 l 416.375 7.601 l 416.359
 7.62 l 416.344 7.632 l 416.328 7.648 l 416.27 7.683 l 416.246 7.695 l 416.227
 7.702 l 416.203 7.714 l 416.176 7.722 l 416.152 7.726 l 416.098 7.734 l
 416.066 7.738 l 416.039 7.738 l 415.73 7.738 415.395 7.437 415.395 7.105
 c 415.395 6.909 415.543 6.667 415.859 6.667 c 416.188 6.667 416.5 6.991
 416.5 7.3 c h
f
414.16 1.472 m 414.145 1.413 l 414.125 1.359 l 414.113 1.331 l 414.098 
1.277 l 414.09 1.245 l 414.086 1.218 l 414.07 1.156 l 414.063 1.093 l 414.063
 1.073 l 414.059 1.058 l 414.059 0.988 l 414.059 0.445 414.516 0.015 415.141
 0.015 c 416.289 0.015 416.801 1.593 416.801 1.769 c 416.801 1.917 416.648
 1.917 416.613 1.917 c 416.457 1.917 416.438 1.851 416.395 1.726 c 416.129
 0.804 415.625 0.335 415.176 0.335 c 414.945 0.335 414.891 0.484 414.891
 0.738 c 414.891 0.995 414.973 1.218 415.074 1.472 c 415.188 1.781 415.32
 2.085 415.441 2.386 c 415.543 2.663 415.961 3.71 416.008 3.847 c 416.039
 3.96 416.074 4.097 416.074 4.214 c 416.074 4.753 415.617 5.187 414.984 
5.187 c 413.848 5.187 413.32 3.628 413.32 3.429 c 413.32 3.281 413.48 3.281
 413.52 3.281 c 413.676 3.281 413.688 3.339 413.723 3.464 c 414.023 4.452
 414.527 4.866 414.945 4.866 c 415.133 4.866 415.238 4.773 415.238 4.464
 c 415.238 4.202 415.168 4.031 414.883 3.32 c h
f
0.769346 w
q 1 0 0 -1 0 145.401611 cm
95.645 73.066 m 95.645 83.234 87.402 91.477 77.234 91.477 c 67.07 91.477
 58.828 83.234 58.828 73.066 c 58.828 62.898 67.07 54.656 77.234 54.656 
c 87.402 54.656 95.645 62.898 95.645 73.066 c h
S Q
76.258 69.308 m 76.496 69.327 l 76.73 69.359 l 76.957 69.394 l 77.18 69.441
 l 77.395 69.491 l 77.605 69.55 l 77.813 69.616 l 78.016 69.687 l 78.207
 69.761 l 78.398 69.847 l 78.582 69.933 l 78.758 70.027 l 78.926 70.124 
l 79.09 70.23 l 79.246 70.335 l 79.395 70.448 l 79.535 70.566 l 79.672 70.691
 l 79.797 70.812 l 79.914 70.945 l 80.023 71.073 l 80.125 71.21 l 80.219
 71.347 l 80.301 71.488 l 80.375 71.632 l 80.438 71.777 l 80.492 71.925 
l 80.539 72.073 l 80.578 72.222 l 80.602 72.378 l 80.621 72.531 l 80.621
 72.687 l 80.621 74.394 78.754 75.886 76.258 76.085 c 76.258 75.722 l 78.523
 75.46 78.988 73.952 78.988 72.702 c 78.988 71.722 78.742 69.964 76.258 
69.671 c 76.258 77.003 l 76.258 77.558 76.258 77.788 77.82 77.788 c 78.359
 77.788 l 78.359 78.3 l 77.773 78.245 76.258 78.245 75.59 78.245 c 74.918
 78.245 73.391 78.245 72.797 78.3 c 72.797 77.788 l 73.344 77.788 l 74.902
 77.788 74.902 77.573 74.902 77.003 c 74.902 69.687 l 72.57 69.995 72.273
 71.675 72.273 72.687 c 72.273 73.542 72.438 75.378 74.902 75.706 c 74.902
 76.085 l 72.391 75.839 70.637 74.327 70.637 72.702 c 70.637 71.015 72.453
 69.554 74.902 69.308 c 74.902 68.39 l 74.902 67.827 74.902 67.605 73.344
 67.605 c 72.797 67.605 l 72.797 67.093 l 73.391 67.148 74.902 67.148 75.57
 67.148 c 76.246 67.148 77.773 67.148 78.359 67.093 c 78.359 67.605 l 77.82
 67.605 l 76.258 67.605 76.258 67.816 76.258 68.39 c h
f
85.414 80.32 m 85.414 80.421 l 85.41 80.433 l 85.41 80.472 l 85.406 80.484
 l 85.406 80.499 l 85.402 80.511 l 85.402 80.531 l 85.395 80.546 l 85.391
 80.558 l 85.383 80.57 l 85.379 80.577 l 85.371 80.589 l 85.355 80.605 l
 85.344 80.613 l 85.336 80.616 l 85.32 80.62 l 85.309 80.624 l 85.293 80.628
 l 85.285 80.632 l 85.277 80.632 l 85.27 80.636 l 85.199 80.636 l 85.191
 80.64 l 85.066 80.64 l 84.332 79.917 83.293 79.906 82.82 79.906 c 82.82
 79.495 l 83.098 79.495 83.855 79.495 84.48 79.812 c 84.48 73.964 l 84.48
 73.581 84.48 73.433 83.336 73.433 c 82.906 73.433 l 82.906 73.019 l 83.109
 73.031 84.52 73.066 84.945 73.066 c 85.301 73.066 86.746 73.031 86.996 
73.019 c 86.996 73.433 l 86.563 73.433 l 85.414 73.433 85.414 73.581 85.414
 73.964 c h
f
375.668 26.12 m 375.668 26.265 l 375.664 26.277 l 375.664 26.288 l 375.66
 26.296 l 375.66 26.308 l 375.656 26.316 l 375.656 26.323 l 375.652 26.331
 l 375.652 26.339 l 375.648 26.347 l 375.641 26.351 l 375.633 26.359 l 375.625
 26.363 l 375.621 26.366 l 375.613 26.37 l 375.609 26.374 l 375.598 26.374
 l 375.59 26.378 l 375.582 26.378 l 375.574 26.382 l 375.539 26.382 l 374.98
 26.39 374.066 26.46 373.234 26.87 c 372.242 27.366 371.863 27.948 371.629
 28.308 c 371.605 28.355 371.547 28.355 371.43 28.355 c 371.219 28.355 371.207
 28.343 371.207 28.113 c 371.207 27.968 l 372.461 25.706 374.535 25.273 
375.477 25.273 c 375.668 25.273 375.668 25.284 375.668 25.531 c h
f
375.586 26.347 30.441 -1.109 re f
410.387 23.691 m 410.266 23.898 l 410.141 24.093 l 410.012 24.281 l 409.883
 24.456 l 409.746 24.62 l 409.609 24.777 l 409.469 24.925 l 409.324 25.062
 l 409.18 25.195 l 409.031 25.316 l 408.883 25.429 l 408.734 25.534 l 408.586
 25.632 l 408.434 25.722 l 408.285 25.804 l 408.137 25.882 l 407.988 25.952
 l 407.84 26.015 l 407.695 26.073 l 407.551 26.124 l 407.41 26.171 l 407.273
 26.214 l 407.137 26.249 l 407.008 26.281 l 406.879 26.304 l 406.754 26.327
 l 406.633 26.343 l 406.52 26.359 l 406.41 26.37 l 406.309 26.374 l 406.211
 26.382 l 406.117 26.382 l 405.926 26.382 405.926 26.37 405.926 26.12 c 
405.926 25.531 l 405.926 25.32 405.926 25.273 406.055 25.273 c 406.617 25.265
 407.531 25.191 408.359 24.784 c 409.355 24.288 409.73 23.706 409.961 23.347
 c 409.992 23.304 410.043 23.304 410.168 23.304 c 410.379 23.304 410.387
 23.312 410.387 23.542 c h
f
414.41 26.12 m 414.41 26.253 l 414.406 26.261 l 414.406 26.284 l 414.402
 26.292 l 414.402 26.308 l 414.398 26.312 l 414.398 26.32 l 414.395 26.331
 l 414.391 26.339 l 414.387 26.343 l 414.383 26.351 l 414.375 26.355 l 414.371
 26.359 l 414.34 26.374 l 414.328 26.374 l 414.316 26.378 l 414.293 26.378
 l 414.285 26.382 l 414.215 26.382 l 413.277 26.382 411.199 25.937 409.945
 23.691 c 409.945 23.542 l 409.945 23.312 409.957 23.304 410.168 23.304 
c 410.348 23.304 410.352 23.312 410.398 23.374 c 411.152 24.581 412.426 
25.238 414.297 25.273 c 414.41 25.273 414.41 25.339 414.41 25.531 c h
f
414.254 26.347 30.438 -1.109 re f
449.125 28.113 m 449.125 28.23 l 449.121 28.234 l 449.121 28.261 l 449.117
 28.265 l 449.117 28.277 l 449.113 28.281 l 449.113 28.288 l 449.109 28.3
 l 449.102 28.316 l 449.094 28.32 l 449.082 28.331 l 449.074 28.335 l 449.07
 28.339 l 449.059 28.343 l 449.051 28.343 l 449.039 28.347 l 449.031 28.347
 l 449.023 28.351 l 448.984 28.351 l 448.977 28.355 l 448.906 28.355 l 448.73
 28.355 448.723 28.343 448.676 28.277 c 447.922 27.073 446.648 26.417 444.777
 26.382 c 444.664 26.382 444.664 26.316 444.664 26.12 c 444.664 25.531 l
 444.664 25.284 444.664 25.273 444.859 25.273 c 445.801 25.273 447.875 25.718
 449.125 27.968 c h
f
201.316 69.308 m 201.555 69.327 l 201.789 69.359 l 202.016 69.394 l 202.234
 69.441 l 202.453 69.491 l 202.664 69.55 l 202.871 69.616 l 203.074 69.687
 l 203.266 69.761 l 203.457 69.847 l 203.641 69.933 l 203.816 70.027 l 203.984
 70.124 l 204.148 70.23 l 204.305 70.335 l 204.453 70.448 l 204.594 70.566
 l 204.73 70.691 l 204.855 70.812 l 204.973 70.945 l 205.082 71.073 l 205.184
 71.21 l 205.277 71.347 l 205.359 71.488 l 205.434 71.632 l 205.496 71.777
 l 205.551 71.925 l 205.598 72.073 l 205.633 72.222 l 205.66 72.378 l 205.676
 72.531 l 205.68 72.687 l 205.68 74.394 203.813 75.886 201.316 76.085 c 
201.316 75.722 l 203.582 75.46 204.047 73.952 204.047 72.702 c 204.047 71.722
 203.801 69.964 201.316 69.671 c 201.316 77.003 l 201.316 77.558 201.316
 77.788 202.879 77.788 c 203.418 77.788 l 203.418 78.3 l 202.832 78.245 
201.316 78.245 200.648 78.245 c 199.977 78.245 198.449 78.245 197.855 78.3
 c 197.855 77.788 l 198.402 77.788 l 199.961 77.788 199.961 77.573 199.961
 77.003 c 199.961 69.687 l 197.629 69.995 197.332 71.675 197.332 72.687 
c 197.332 73.542 197.496 75.378 199.961 75.706 c 199.961 76.085 l 197.449
 75.839 195.695 74.327 195.695 72.702 c 195.695 71.015 197.512 69.554 199.961
 69.308 c 199.961 68.39 l 199.961 67.827 199.961 67.605 198.402 67.605 c
 197.855 67.605 l 197.855 67.093 l 198.449 67.148 199.961 67.148 200.629
 67.148 c 201.305 67.148 202.832 67.148 203.418 67.093 c 203.418 67.605 
l 202.879 67.605 l 201.316 67.605 201.316 67.816 201.316 68.39 c h
f
212.422 75.109 m 212.031 75.109 l 212 74.859 211.883 74.175 211.734 74.066
 c 211.645 73.999 210.762 73.999 210.602 73.999 c 208.488 73.999 l 209.691
 75.062 210.094 75.382 210.781 75.921 c 211.633 76.601 212.422 77.312 212.422
 78.402 c 212.422 79.792 211.211 80.64 209.738 80.64 c 208.316 80.64 207.352
 79.644 207.352 78.589 c 207.352 77.999 207.844 77.945 207.961 77.945 c 
208.234 77.945 208.57 78.14 208.57 78.554 c 208.57 78.757 208.488 79.159
 207.891 79.159 c 208.246 79.972 209.027 80.222 209.566 80.222 c 210.715
 80.222 211.313 79.335 211.313 78.402 c 211.313 77.406 210.602 76.613 210.23
 76.202 c 207.469 73.468 l 207.352 73.366 207.352 73.339 207.352 73.019 
c 212.078 73.019 l h
f
0.769352 w
q 1 0 0 -1 0 145.401611 cm
220.703 73.066 m 220.703 83.234 212.461 91.477 202.293 91.477 c 192.125
 91.477 183.883 83.234 183.883 73.066 c 183.883 62.898 192.125 54.656 202.293
 54.656 c 212.461 54.656 220.703 62.898 220.703 73.066 c h
S Q
315.727 69.308 m 315.965 69.327 l 316.199 69.359 l 316.426 69.394 l 316.648
 69.441 l 316.863 69.491 l 317.074 69.55 l 317.281 69.616 l 317.484 69.687
 l 317.676 69.761 l 317.867 69.847 l 318.051 69.933 l 318.227 70.027 l 318.395
 70.124 l 318.559 70.23 l 318.715 70.335 l 318.863 70.448 l 319.004 70.566
 l 319.141 70.691 l 319.266 70.812 l 319.383 70.945 l 319.492 71.073 l 319.594
 71.21 l 319.688 71.347 l 319.77 71.488 l 319.844 71.632 l 319.906 71.777
 l 319.965 71.925 l 320.008 72.073 l 320.047 72.222 l 320.07 72.378 l 320.09
 72.531 l 320.09 72.687 l 320.09 74.394 318.223 75.886 315.727 76.085 c 
315.727 75.722 l 317.992 75.46 318.457 73.952 318.457 72.702 c 318.457 71.722
 318.211 69.964 315.727 69.671 c 315.727 77.003 l 315.727 77.558 315.727
 77.788 317.289 77.788 c 317.828 77.788 l 317.828 78.3 l 317.242 78.245 
315.727 78.245 315.059 78.245 c 314.387 78.245 312.859 78.245 312.266 78.3
 c 312.266 77.788 l 312.813 77.788 l 314.371 77.788 314.371 77.573 314.371
 77.003 c 314.371 69.687 l 312.039 69.995 311.742 71.675 311.742 72.687 
c 311.742 73.542 311.91 75.378 314.371 75.706 c 314.371 76.085 l 311.859
 75.839 310.105 74.327 310.105 72.702 c 310.105 71.015 311.922 69.554 314.371
 69.308 c 314.371 68.39 l 314.371 67.827 314.371 67.605 312.813 67.605 c
 312.266 67.605 l 312.266 67.093 l 312.859 67.148 314.371 67.148 315.039
 67.148 c 315.715 67.148 317.242 67.148 317.828 67.093 c 317.828 67.605 
l 317.289 67.605 l 315.727 67.605 315.727 67.816 315.727 68.39 c h
f
327.113 74.906 m 327.113 75.316 l 325.836 75.316 l 325.836 80.433 l 325.836
 80.671 325.836 80.753 325.586 80.753 c 325.441 80.753 325.398 80.753 325.285
 80.593 c 321.488 75.316 l 321.488 74.906 l 324.863 74.906 l 324.938 75.316
 l 321.91 75.316 l 324.938 79.515 l 324.938 75.316 l 324.863 74.906 l 324.863
 73.964 l 324.863 73.57 324.863 73.433 323.93 73.433 c 323.621 73.433 l 
323.621 73.019 l 324.195 73.042 324.93 73.066 325.34 73.066 c 325.77 73.066
 326.5 73.042 327.074 73.019 c 327.074 73.433 l 326.766 73.433 l 325.836
 73.433 325.836 73.57 325.836 73.964 c 325.836 74.906 l h
f
q 1 0 0 -1 0 145.401611 cm
335.113 73.066 m 335.113 83.234 326.871 91.477 316.703 91.477 c 306.539
 91.477 298.297 83.234 298.297 73.066 c 298.297 62.898 306.539 54.656 316.703
 54.656 c 326.871 54.656 335.113 62.898 335.113 73.066 c h
S Q
139.723 48.456 m 139.723 48.484 l 139.719 48.488 l 139.719 48.507 l 139.715
 48.511 l 139.711 48.519 l 139.711 48.527 l 139.707 48.534 l 139.699 48.538
 l 139.699 48.546 l 139.672 48.573 l 139.672 48.577 l 139.664 48.577 l 139.656
 48.585 l 139.652 48.585 l 139.641 48.597 l 139.629 48.597 l 139.621 48.601
 l 139.617 48.601 l 139.609 48.605 l 139.59 48.605 l 139.582 48.609 l 139.57
 48.609 l 139.559 48.613 l 139.543 48.613 l 139.332 48.613 138 48.484 137.762
 48.456 c 137.648 48.445 137.566 48.374 137.566 48.191 c 137.566 48.023 
137.691 48.023 137.902 48.023 c 138.574 48.023 138.602 47.925 138.602 47.784
 c 138.563 47.503 l 137.719 44.179 l 137.469 44.698 137.059 45.073 136.43
 45.073 c 136.445 44.769 l 137.355 44.769 137.551 43.62 137.551 43.538 c
 137.551 43.448 137.527 43.366 137.512 43.296 c 136.809 40.546 l 136.738
 40.296 136.738 40.273 136.527 40.031 c 135.914 39.257 135.336 39.034 134.945
 39.034 c 134.246 39.034 134.047 39.804 134.047 40.355 c 134.047 41.054 
134.496 42.777 134.82 43.425 c 135.254 44.249 135.887 44.769 136.445 44.769
 c 136.43 45.073 l 134.789 45.073 133.055 43.019 133.055 40.968 c 133.055
 39.648 133.824 38.726 134.918 38.726 c 135.195 38.726 135.898 38.784 136.738
 39.781 c 136.852 39.187 137.34 38.726 138.012 38.726 c 138.504 38.726 138.828
 39.046 139.051 39.499 c 139.289 40.003 139.473 40.859 139.473 40.886 c 
139.473 41.027 139.348 41.027 139.309 41.027 c 139.168 41.027 139.152 40.968
 139.109 40.773 c 138.871 39.863 138.617 39.034 138.043 39.034 c 137.668
 39.034 137.621 39.398 137.621 39.679 c 137.621 40.015 137.648 40.116 137.707
 40.355 c h
f
144.973 38.398 m 144.973 38.749 l 143.883 38.749 l 143.883 43.124 l 143.883
 43.327 143.883 43.398 143.668 43.398 c 143.551 43.398 143.512 43.398 143.414
 43.261 c 140.168 38.749 l 140.168 38.398 l 143.051 38.398 l 143.121 38.749
 l 140.527 38.749 l 143.121 42.335 l 143.121 38.749 l 143.051 38.398 l 143.051
 37.593 l 143.051 37.257 143.051 37.14 142.258 37.14 c 141.996 37.14 l 141.996
 36.788 l 142.48 36.804 143.109 36.827 143.461 36.827 c 143.828 36.827 144.449
 36.804 144.945 36.788 c 144.945 37.14 l 144.68 37.14 l 143.883 37.14 143.883
 37.257 143.883 37.593 c 143.883 38.398 l h
f
138.031 64.476 m 137.949 64.476 l 137.906 64.472 l 137.828 64.472 l 137.77
 64.46 l 137.746 64.46 l 137.73 64.452 l 137.711 64.452 l 137.691 64.445
 l 137.672 64.441 l 137.652 64.433 l 137.637 64.429 l 137.617 64.421 l 137.598
 64.409 l 137.578 64.402 l 137.559 64.39 l 137.539 64.382 l 137.523 64.37
 l 137.504 64.355 l 137.484 64.343 l 137.445 64.312 l 137.41 64.277 l 137.184
 64.066 137.16 63.827 137.16 63.734 c 137.16 63.394 137.41 63.241 137.676
 63.241 c 138.082 63.241 138.465 63.577 138.465 64.136 c 138.465 64.823 
137.809 65.339 136.809 65.339 c 134.918 65.339 133.055 63.335 133.055 61.363
 c 133.055 60.101 133.867 58.991 135.324 58.991 c 137.324 58.991 138.504
 60.476 138.504 60.648 c 138.504 60.726 138.422 60.827 138.34 60.827 c 138.27
 60.827 138.242 60.796 138.152 60.687 c 137.043 59.3 135.52 59.3 135.352
 59.3 c 134.469 59.3 134.09 59.984 134.09 60.827 c 134.09 61.402 134.367
 62.765 134.848 63.632 c 135.281 64.429 136.051 65.034 136.82 65.034 c 137.301
 65.034 137.832 64.855 138.031 64.476 c h
f
143.746 58.663 m 143.746 59.015 l 142.652 59.015 l 142.652 63.39 l 142.652
 63.593 142.652 63.663 142.438 63.663 c 142.32 63.663 142.281 63.663 142.184
 63.527 c 138.938 59.015 l 138.938 58.663 l 141.824 58.663 l 141.887 59.015
 l 139.297 59.015 l 141.887 62.601 l 141.887 59.015 l 141.824 58.663 l 141.824
 57.859 l 141.824 57.523 141.824 57.406 141.027 57.406 c 140.762 57.406 
l 140.762 57.054 l 141.25 57.07 141.879 57.093 142.23 57.093 c 142.598 57.093
 143.223 57.07 143.715 57.054 c 143.715 57.406 l 143.449 57.406 l 142.652
 57.406 142.652 57.523 142.652 57.859 c 142.652 58.663 l h
f
135.746 86.093 m 135.746 86.124 l 135.742 86.128 l 135.742 86.136 l 135.734
 86.144 l 135.734 86.156 l 135.73 86.159 l 135.727 86.167 l 135.727 86.175
 l 135.707 86.195 l 135.703 86.202 l 135.699 86.206 l 135.695 86.206 l 135.688
 86.214 l 135.684 86.214 l 135.672 86.226 l 135.664 86.226 l 135.66 86.23
 l 135.656 86.23 l 135.648 86.234 l 135.637 86.234 l 135.633 86.238 l 135.625
 86.241 l 135.613 86.241 l 135.605 86.245 l 135.566 86.245 l 135.242 86.245
 134.219 86.132 133.855 86.105 c 133.742 86.093 133.586 86.077 133.586 85.823
 c 133.586 85.656 133.715 85.656 133.926 85.656 c 134.598 85.656 134.625
 85.562 134.625 85.421 c 134.625 85.32 134.496 84.843 134.426 84.55 c 133.281
 79.98 l 133.113 79.277 133.055 79.05 133.055 78.566 c 133.055 77.234 133.797
 76.363 134.836 76.363 c 134.836 76.671 l 134.355 76.671 133.895 77.046 
133.895 78.085 c 133.895 78.355 133.895 78.616 134.117 79.503 c 134.426 
80.792 l 134.512 81.101 134.512 81.128 134.637 81.284 c 135.324 82.191 135.957
 82.402 136.32 82.402 c 136.828 82.402 137.203 81.988 137.203 81.081 c 137.203
 80.257 136.742 78.648 136.488 78.113 c 136.027 77.175 135.383 76.671 134.836
 76.671 c 134.836 76.363 l 136.488 76.363 138.211 78.448 138.211 80.468 
c 138.211 81.745 137.469 82.71 136.348 82.71 c 135.707 82.71 135.133 82.308
 134.707 81.87 c h
f
143.594 76.031 m 143.594 76.382 l 142.504 76.382 l 142.504 80.761 l 142.504
 80.96 142.504 81.031 142.289 81.031 c 142.168 81.031 142.129 81.031 142.035
 80.894 c 138.789 76.382 l 138.789 76.031 l 141.672 76.031 l 141.738 76.382
 l 139.148 76.382 l 141.738 79.972 l 141.738 76.382 l 141.672 76.031 l 141.672
 75.226 l 141.672 74.894 141.672 74.773 140.879 74.773 c 140.613 74.773 
l 140.613 74.421 l 141.102 74.441 141.73 74.46 142.082 74.46 c 142.449 74.46
 143.07 74.441 143.566 74.421 c 143.566 74.773 l 143.301 74.773 l 142.504
 74.773 142.504 74.894 142.504 75.226 c 142.504 76.031 l h
f
138.168 102.792 m 138.141 102.843 l 138.113 102.898 l 138.086 102.945 l
 138.059 102.995 l 138.027 103.046 l 137.996 103.093 l 137.961 103.14 l 
137.93 103.183 l 137.895 103.23 l 137.859 103.269 l 137.82 103.312 l 137.785
 103.355 l 137.742 103.39 l 137.703 103.429 l 137.66 103.46 l 137.574 103.531
 l 137.527 103.558 l 137.48 103.589 l 137.332 103.663 l 137.281 103.679 
l 137.227 103.702 l 137.176 103.718 l 137.121 103.734 l 137.063 103.745 
l 137.004 103.753 l 136.945 103.765 l 136.82 103.773 l 136.758 103.773 l
 136.773 103.437 l 137.77 103.437 137.984 102.179 137.984 102.089 c 137.984
 101.988 137.957 101.902 137.941 101.823 c 137.168 98.808 l 137.094 98.534
 137.094 98.507 136.859 98.241 c 136.188 97.394 135.555 97.152 135.129 97.152
 c 134.359 97.152 134.145 97.995 134.145 98.597 c 134.145 99.363 134.633
 101.253 134.988 101.96 c 135.465 102.87 136.156 103.437 136.773 103.437
 c 136.758 103.773 l 134.957 103.773 133.055 101.519 133.055 99.273 c 133.055
 97.823 133.898 96.812 135.098 96.812 c 135.402 96.812 136.172 96.878 137.094
 97.968 c 137.219 97.32 137.754 96.812 138.488 96.812 c 139.031 96.812 139.387
 97.163 139.629 97.659 c 139.891 98.21 140.09 99.152 140.09 99.179 c 140.09
 99.331 139.953 99.331 139.91 99.331 c 139.754 99.331 139.738 99.273 139.691
 99.054 c 139.43 98.058 139.152 97.152 138.523 97.152 c 138.109 97.152 138.063
 97.55 138.063 97.859 c 138.063 98.198 138.094 98.32 138.258 98.995 c 138.434
 99.64 138.461 99.796 138.602 100.378 c 139.152 102.531 l 139.262 102.956
 139.262 102.991 139.262 103.05 c 139.262 103.316 139.078 103.472 138.813
 103.472 c 138.445 103.472 138.215 103.128 138.168 102.792 c h
f
146.234 96.452 m 146.234 96.839 l 145.035 96.839 l 145.035 101.636 l 145.035
 101.859 145.035 101.933 144.801 101.933 c 144.672 101.933 144.629 101.933
 144.52 101.784 c 140.965 96.839 l 140.965 96.452 l 144.125 96.452 l 144.199
 96.839 l 141.359 96.839 l 144.199 100.773 l 144.199 96.839 l 144.125 96.452
 l 144.125 95.57 l 144.125 95.202 144.125 95.073 143.254 95.073 c 142.965
 95.073 l 142.965 94.687 l 143.5 94.706 144.188 94.73 144.574 94.73 c 144.977
 94.73 145.66 94.706 146.199 94.687 c 146.199 95.073 l 145.91 95.073 l 145.035
 95.073 145.035 95.202 145.035 95.57 c 145.035 96.452 l h
f
0.800815 w
q 1 0 0 -0.814286 0 145.401611 cm
127.625 43.194 23.453 23.453 re S Q
0.800815 w
q 1 0 0 -0.814286 0 145.401611 cm
127.625 66.479 23.453 23.453 re S Q
0.800815 w
q 1 0 0 -0.814286 0 145.401611 cm
127.625 89.759 23.453 23.453 re S Q
0.800815 w
q 1 0 0 -0.814286 0 145.401611 cm
127.625 113.045 23.453 23.453 re S Q
0.800815 w
q 1 0 0 -0.814286 0 145.401611 cm
375.539 43.194 23.449 23.453 re S Q
0.800815 w
q 1 0 0 -0.814286 0 145.401611 cm
375.539 66.479 23.449 23.453 re S Q
0.800815 w
q 1 0 0 -0.814286 0 145.401611 cm
375.539 89.759 23.449 23.453 re S Q
0.800815 w
q 1 0 0 -0.814286 0 145.401611 cm
375.539 113.045 23.449 23.453 re S Q
1.754 26.952 m 1.754 27.12 l 1.75 27.132 l 1.75 27.171 l 1.746 27.179 l
 1.746 27.195 l 1.742 27.198 l 1.742 27.202 l 1.738 27.21 l 1.738 27.214
 l 1.727 27.226 l 1.723 27.226 l 1.719 27.23 l 1.703 27.23 l 1.484 27.241
 1.125 27.32 0.801 27.757 c 0.41 28.288 0.262 28.913 0.168 29.3 c 0.16 29.347
 0.137 29.347 0.09 29.347 c 0.008 29.347 0.004 29.339 0.004 29.089 c 0.004
 28.933 l 0.496 26.507 1.309 26.042 1.676 26.042 c 1.754 26.042 1.754 26.054
 1.754 26.32 c h
f
1.723 27.195 11.938 -1.191 re f
15.371 24.343 m 15.324 24.566 l 15.273 24.777 l 15.223 24.976 l 15.172 
25.163 l 15.121 25.339 l 15.066 25.511 l 15.012 25.667 l 14.953 25.816 l
 14.898 25.956 l 14.84 26.089 l 14.781 26.21 l 14.723 26.323 l 14.664 26.429
 l 14.605 26.523 l 14.547 26.613 l 14.488 26.698 l 14.371 26.839 l 14.316
 26.902 l 14.258 26.956 l 14.203 27.007 l 14.148 27.05 l 14.098 27.089 l
 14.043 27.12 l 13.996 27.152 l 13.945 27.175 l 13.898 27.191 l 13.855 27.206
 l 13.813 27.218 l 13.77 27.226 l 13.734 27.23 l 13.695 27.23 l 13.621 27.23
 13.621 27.218 13.621 26.952 c 13.621 26.32 l 13.621 26.093 13.621 26.042
 13.672 26.042 c 13.891 26.034 14.25 25.956 14.574 25.519 c 14.965 24.988
 15.113 24.363 15.203 23.976 c 15.215 23.929 15.238 23.929 15.285 23.929
 c 15.367 23.929 15.371 23.937 15.371 24.187 c h
f
16.949 26.952 m 16.949 27.116 l 16.945 27.12 l 16.945 27.167 l 16.941 27.179
 l 16.941 27.191 l 16.934 27.206 l 16.934 27.21 l 16.926 27.218 l 16.926
 27.222 l 16.922 27.222 l 16.918 27.226 l 16.914 27.226 l 16.91 27.23 l 
16.871 27.23 l 16.504 27.23 15.691 26.757 15.199 24.343 c 15.199 24.187 
l 15.199 23.937 15.203 23.929 15.285 23.929 c 15.355 23.929 15.359 23.937
 15.375 24.003 c 15.672 25.3 16.172 26.003 16.906 26.042 c 16.949 26.042
 16.949 26.113 16.949 26.32 c h
f
16.887 27.195 11.941 -1.191 re f
30.566 29.089 m 30.566 29.214 l 30.563 29.222 l 30.563 29.269 l 30.559 
29.277 l 30.559 29.3 l 30.555 29.308 l 30.555 29.312 l 30.551 29.32 l 30.547
 29.323 l 30.547 29.327 l 30.535 29.339 l 30.531 29.339 l 30.527 29.343 
l 30.52 29.343 l 30.52 29.347 l 30.48 29.347 l 30.41 29.347 30.406 29.339
 30.387 29.265 c 30.094 27.972 29.594 27.269 28.859 27.23 c 28.816 27.23
 28.816 27.159 28.816 26.952 c 28.816 26.32 l 28.816 26.054 28.816 26.042
 28.891 26.042 c 29.262 26.042 30.074 26.519 30.566 28.933 c h
f
0.800815 w
q 1 0 0 -0.814286 0 145.401611 cm
421.516 43.194 23.453 23.453 re S Q
0.800815 w
q 1 0 0 -0.814286 0 145.401611 cm
421.516 66.479 23.453 23.453 re S Q
0.800815 w
q 1 0 0 -0.814286 0 145.401611 cm
421.516 89.759 23.453 23.453 re S Q
0.800815 w
q 1 0 0 -0.814286 0 145.401611 cm
421.516 113.045 23.453 23.453 re S Q
431.609 102.277 m 431.582 102.323 l 431.559 102.37 l 431.531 102.417 l 
431.508 102.46 l 431.453 102.554 l 431.391 102.632 l 431.359 102.675 l 431.324
 102.714 l 431.293 102.753 l 431.223 102.823 l 431.066 102.948 l 430.98 
103.003 l 430.938 103.027 l 430.895 103.046 l 430.848 103.07 l 430.797 103.085
 l 430.75 103.105 l 430.703 103.12 l 430.652 103.136 l 430.598 103.148 l
 430.547 103.156 l 430.492 103.163 l 430.438 103.167 l 430.379 103.171 l
 430.32 103.171 l 430.336 102.866 l 431.242 102.866 431.441 101.718 431.441
 101.636 c 431.441 101.546 431.414 101.464 431.402 101.394 c 430.699 98.644
 l 430.629 98.394 430.629 98.366 430.414 98.124 c 429.801 97.355 429.227
 97.132 428.836 97.132 c 428.133 97.132 427.938 97.902 427.938 98.448 c 
427.938 99.152 428.383 100.87 428.707 101.519 c 429.141 102.347 429.773 
102.866 430.336 102.866 c 430.32 103.171 l 428.68 103.171 426.945 101.113
 426.945 99.066 c 426.945 97.745 427.711 96.823 428.805 96.823 c 429.086
 96.823 429.789 96.882 430.629 97.874 c 430.742 97.284 431.23 96.823 431.902
 96.823 c 432.395 96.823 432.719 97.144 432.941 97.593 c 433.18 98.097 433.363
 98.956 433.363 98.98 c 433.363 99.12 433.234 99.12 433.195 99.12 c 433.055
 99.12 433.043 99.066 433 98.87 c 432.762 97.956 432.508 97.132 431.934 
97.132 c 431.555 97.132 431.512 97.495 431.512 97.777 c 431.512 98.085 431.539
 98.195 431.691 98.816 c 431.852 99.402 431.875 99.542 432.004 100.077 c
 432.508 102.038 l 432.605 102.429 432.605 102.46 432.605 102.511 c 432.605
 102.753 432.438 102.894 432.195 102.894 c 431.863 102.894 431.652 102.581
 431.609 102.277 c h
f
438.84 98.011 m 438.836 98.21 l 438.828 98.402 l 438.82 98.589 l 438.809
 98.769 l 438.793 98.941 l 438.773 99.113 l 438.75 99.273 l 438.719 99.429
 l 438.68 99.585 l 438.637 99.734 l 438.59 99.874 l 438.539 100.015 l 438.477
 100.156 l 438.41 100.288 l 438.336 100.421 l 438.297 100.488 l 438.254 
100.55 l 437.953 101.003 437.348 101.394 436.559 101.394 c 436.559 101.12
 l 437.09 101.12 437.602 100.8 437.777 100.23 c 437.934 99.698 437.945 98.991
 437.945 98.136 c 437.945 97.413 437.945 96.687 437.816 96.073 c 437.621
 95.179 436.957 94.964 436.559 94.964 c 436.113 94.964 435.512 95.226 435.316
 96.031 c 435.18 96.609 435.18 97.413 435.18 98.136 c 435.18 98.855 435.18
 99.605 435.324 100.136 c 435.531 100.913 436.16 101.12 436.559 101.12 c
 436.559 101.394 l 434.285 101.394 434.285 98.718 434.285 98.011 c 434.285
 97.308 434.285 94.687 436.559 94.687 c 438.84 94.687 438.84 97.308 438.84
 98.011 c h
f
429.637 86.288 m 429.637 86.296 l 429.633 86.3 l 429.633 86.32 l 429.629
 86.327 l 429.629 86.335 l 429.621 86.351 l 429.621 86.355 l 429.617 86.366
 l 429.613 86.37 l 429.609 86.378 l 429.59 86.398 l 429.59 86.402 l 429.582
 86.406 l 429.578 86.409 l 429.57 86.413 l 429.57 86.417 l 429.563 86.417
 l 429.555 86.425 l 429.543 86.425 l 429.539 86.429 l 429.531 86.433 l 429.527
 86.433 l 429.52 86.437 l 429.5 86.437 l 429.492 86.441 l 429.48 86.441 
l 429.469 86.445 l 429.457 86.445 l 429.129 86.445 428.109 86.327 427.746
 86.304 c 427.629 86.288 427.477 86.277 427.477 86.023 c 427.477 85.851 
427.605 85.851 427.816 85.851 c 428.488 85.851 428.516 85.757 428.516 85.616
 c 428.516 85.515 428.387 85.038 428.316 84.745 c 427.168 80.175 l 427.004
 79.472 426.945 79.249 426.945 78.761 c 426.945 77.429 427.688 76.558 428.727
 76.558 c 428.727 76.866 l 428.246 76.866 427.785 77.245 427.785 78.284 
c 427.785 78.55 427.785 78.816 428.008 79.698 c 428.316 80.991 l 428.402
 81.3 428.402 81.323 428.527 81.48 c 429.215 82.39 429.848 82.601 430.211
 82.601 c 430.719 82.601 431.094 82.183 431.094 81.281 c 431.094 80.456 
430.629 78.847 430.379 78.308 c 429.918 77.37 429.27 76.866 428.727 76.866
 c 428.727 76.558 l 430.379 76.558 432.102 78.648 432.102 80.667 c 432.102
 81.941 431.359 82.906 430.238 82.906 c 429.598 82.906 429.02 82.503 428.598
 82.07 c h
f
437.355 77.745 m 437.355 77.945 l 437.352 78.136 l 437.34 78.323 l 437.328
 78.503 l 437.313 78.679 l 437.289 78.847 l 437.266 79.007 l 437.238 79.163
 l 437.199 79.32 l 437.16 79.468 l 437.109 79.613 l 437.059 79.753 l 436.996
 79.89 l 436.93 80.027 l 436.855 80.156 l 436.777 80.288 l 436.473 80.741
 435.867 81.132 435.078 81.132 c 435.078 80.855 l 435.609 80.855 436.121
 80.534 436.297 79.964 c 436.453 79.433 436.465 78.726 436.465 77.87 c 436.465
 77.148 436.465 76.421 436.336 75.808 c 436.141 74.913 435.477 74.698 435.078
 74.698 c 434.633 74.698 434.031 74.964 433.836 75.769 c 433.695 76.343 
433.695 77.148 433.695 77.87 c 433.695 78.589 433.695 79.339 433.844 79.874
 c 434.047 80.648 434.68 80.855 435.078 80.855 c 435.078 81.132 l 432.805
 81.132 432.805 78.456 432.805 77.745 c 432.805 77.042 432.805 74.421 435.078
 74.421 c 437.355 74.421 437.355 77.042 437.355 77.745 c h
f
431.918 64.671 m 431.754 64.671 l 431.676 64.663 l 431.637 64.656 l 431.621
 64.652 l 431.582 64.644 l 431.563 64.636 l 431.543 64.632 l 431.484 64.609
 l 431.469 64.601 l 431.41 64.566 l 431.391 64.55 l 431.371 64.542 l 431.355
 64.523 l 431.336 64.511 l 431.32 64.491 l 431.301 64.472 l 431.074 64.261
 431.051 64.027 431.051 63.929 c 431.051 63.589 431.301 63.437 431.566 63.437
 c 431.973 63.437 432.355 63.777 432.355 64.331 c 432.355 65.019 431.695
 65.538 430.699 65.538 c 428.805 65.538 426.945 63.534 426.945 61.558 c 
426.945 60.296 427.758 59.187 429.211 59.187 c 431.215 59.187 432.395 60.675
 432.395 60.843 c 432.395 60.925 432.309 61.027 432.227 61.027 c 432.156
 61.027 432.129 60.995 432.043 60.886 c 430.934 59.499 429.41 59.499 429.242
 59.499 c 428.359 59.499 427.98 60.183 427.98 61.027 c 427.98 61.597 428.258
 62.96 428.734 63.827 c 429.172 64.628 429.941 65.23 430.711 65.23 c 431.191
 65.23 431.723 65.05 431.918 64.671 c h
f
437.508 60.374 m 437.504 60.577 l 437.5 60.769 l 437.492 60.952 l 437.48
 61.132 l 437.461 61.308 l 437.441 61.476 l 437.418 61.636 l 437.387 61.792
 l 437.348 61.948 l 437.309 62.097 l 437.258 62.241 l 437.207 62.382 l 437.148
 62.519 l 437.078 62.656 l 437.008 62.788 l 436.969 62.851 l 436.926 62.917
 l 436.621 63.37 436.016 63.761 435.227 63.761 c 435.227 63.484 l 435.758
 63.484 436.27 63.163 436.445 62.593 c 436.605 62.066 436.613 61.359 436.613
 60.503 c 436.613 59.781 436.613 59.054 436.484 58.437 c 436.289 57.546 
435.625 57.327 435.227 57.327 c 434.781 57.327 434.18 57.593 433.984 58.398
 c 433.848 58.976 433.848 59.781 433.848 60.503 c 433.848 61.222 433.848
 61.968 433.992 62.503 c 434.199 63.277 434.828 63.484 435.227 63.484 c 
435.227 63.761 l 432.953 63.761 432.953 61.085 432.953 60.374 c 432.953 
59.671 432.953 57.054 435.227 57.054 c 437.508 57.054 437.508 59.671 437.508
 60.374 c h
f
433.613 49.007 m 433.613 49.031 l 433.609 49.034 l 433.609 49.042 l 433.605
 49.046 l 433.605 49.058 l 433.598 49.073 l 433.598 49.081 l 433.59 49.085
 l 433.586 49.097 l 433.582 49.101 l 433.574 49.105 l 433.57 49.116 l 433.566
 49.116 l 433.559 49.124 l 433.555 49.124 l 433.543 49.136 l 433.535 49.136
 l 433.535 49.14 l 433.527 49.144 l 433.523 49.144 l 433.516 49.148 l 433.504
 49.148 l 433.5 49.152 l 433.492 49.156 l 433.457 49.156 l 433.449 49.159
 l 433.434 49.159 l 433.223 49.159 431.891 49.031 431.652 49.007 c 431.539
 48.991 431.453 48.921 431.453 48.738 c 431.453 48.57 431.582 48.57 431.793
 48.57 c 432.465 48.57 432.492 48.472 432.492 48.331 c 432.453 48.05 l 431.609
 44.73 l 431.359 45.245 430.949 45.624 430.32 45.624 c 430.336 45.316 l 
431.242 45.316 431.441 44.167 431.441 44.085 c 431.441 43.995 431.414 43.913
 431.402 43.843 c 430.699 41.097 l 430.629 40.843 430.629 40.82 430.414 
40.577 c 429.801 39.808 429.227 39.585 428.836 39.585 c 428.133 39.585 427.938
 40.351 427.938 40.902 c 427.938 41.601 428.383 43.323 428.707 43.972 c 
429.141 44.8 429.773 45.316 430.336 45.316 c 430.32 45.624 l 428.68 45.624
 426.945 43.566 426.945 41.519 c 426.945 40.198 427.711 39.273 428.805 39.273
 c 429.086 39.273 429.789 39.335 430.629 40.327 c 430.742 39.738 431.23 
39.273 431.902 39.273 c 432.395 39.273 432.719 39.597 432.941 40.046 c 433.18
 40.55 433.363 41.406 433.363 41.433 c 433.363 41.573 433.234 41.573 433.195
 41.573 c 433.055 41.573 433.043 41.519 433 41.32 c 432.762 40.409 432.508
 39.585 431.934 39.585 c 431.555 39.585 431.512 39.948 431.512 40.23 c 431.512
 40.562 431.539 40.663 431.594 40.902 c h
f
438.738 40.46 m 438.734 40.663 l 438.727 40.855 l 438.719 41.038 l 438.707
 41.218 l 438.691 41.394 l 438.672 41.562 l 438.648 41.722 l 438.617 41.882
 l 438.578 42.034 l 438.539 42.183 l 438.488 42.327 l 438.438 42.468 l 438.375
 42.605 l 438.309 42.741 l 438.234 42.874 l 438.195 42.937 l 438.156 43.003
 l 437.852 43.456 437.246 43.847 436.457 43.847 c 436.457 43.57 l 436.988
 43.57 437.5 43.249 437.676 42.679 c 437.832 42.152 437.844 41.445 437.844
 40.589 c 437.844 39.866 437.844 39.14 437.715 38.523 c 437.52 37.632 436.855
 37.413 436.457 37.413 c 436.012 37.413 435.41 37.679 435.215 38.484 c 435.078
 39.062 435.078 39.866 435.078 40.589 c 435.078 41.308 435.078 42.054 435.223
 42.589 c 435.43 43.363 436.059 43.57 436.457 43.57 c 436.457 43.847 l 434.184
 43.847 434.184 41.171 434.184 40.46 c 434.184 39.757 434.184 37.14 436.457
 37.14 c 438.738 37.14 438.738 39.757 438.738 40.46 c h
f
1.35512 w
q 1 0 0 -1 0 145.401611 cm
26.191 73.176 m 56.414 73.246 l S Q
50.996 72.167 m 48.277 69.464 l 57.77 72.152 l 48.289 74.886 l h
f*
0.677558 w
q -1 0.00238753 0.00238753 1 0 145.401611 cm
-51.171 -73.112 m -48.458 -75.822 l -57.944 -73.112 l -48.457 -70.4 l h
S Q
1.35512 w
q 1 0 0 -1 0 145.401611 cm
95.695 73.176 m 124.832 73.246 l S Q
119.41 72.167 m 116.695 69.464 l 126.188 72.152 l 116.707 74.886 l h
f*
0.677558 w
q -1 0.00247677 0.00247677 1 0 145.401611 cm
-119.591 -72.938 m -116.883 -75.648 l -126.368 -72.937 l -116.881 -70.226
 l h
S Q
1.35512 w
q 1 0 0 -1 0 145.401611 cm
220.895 73.176 m 245.449 73.246 l S Q
240.027 72.171 m 237.309 69.468 l 246.805 72.152 l 237.324 74.89 l h
f*
0.677557 w
q -1 0.00293878 0.00293878 1 0 145.401611 cm
-240.24 -72.524 m -237.53 -75.236 l -247.018 -72.524 l -237.529 -69.814
 l h
S Q
1.35512 w
q 1 0 0 -1 0 145.401611 cm
335.121 73.176 m 372.664 73.188 l S Q
367.246 72.218 m 364.535 69.507 l 374.02 72.214 l 364.535 74.929 l h
f*
0.67756 w
q -1 0.000311104 0.000311104 1 0 145.401611 cm
-367.269 -73.069 m -364.559 -75.781 l -374.042 -73.071 l -364.557 -70.359
 l h
S Q
1.35512 w
q 1 0 0 -1 0 145.401611 cm
77.277 19.855 m 77.277 52.141 l S Q
77.277 98.683 m 74.566 101.394 l 77.277 91.906 l 79.984 101.394 l h
f*
0.67756 w
q -0.000000000000000061 1 1 0.000000000000000061 0 145.401611 cm
-46.719 77.277 m -44.008 74.566 l -53.496 77.277 l -44.008 79.984 l h
S Q
1.35512 w
q 1 0 0 -1 0 145.401611 cm
202.02 19.816 m 202.02 52.098 l S Q
202.02 98.726 m 199.309 101.433 l 202.02 91.948 l 204.73 101.433 l h
f*
0.67756 w
q -0.000000000000000061 1 1 0.000000000000000061 0 145.401611 cm
-46.676 202.02 m -43.969 199.309 l -53.453 202.02 l -43.969 204.73 l h
S Q
1.35512 w
q 1 0 0 -1 0 145.401611 cm
316.652 19.883 m 316.652 52.168 l S Q
316.652 98.656 m 313.941 101.366 l 316.652 91.878 l 319.359 101.366 l h
f*
0.67756 w
q -0.000000000000000061 1 1 0.000000000000000061 0 145.401611 cm
-46.746 316.652 m -44.035 313.941 l -53.523 316.652 l -44.035 319.359 l
 h
S Q
1.35512 w
q 1 0 0 -1 0 145.401611 cm
151.395 73.176 m 181.617 73.246 l S Q
176.199 72.167 m 173.48 69.464 l 182.973 72.152 l 173.492 74.886 l h
f*
0.677558 w
q -1 0.00238753 0.00238753 1 0 145.401611 cm
-176.373 -72.813 m -173.661 -75.523 l -183.146 -72.813 l -173.66 -70.101
 l h
S Q
1.35512 w
q 1 0 0 -1 0 145.401611 cm
271.43 73.18 m 295.984 73.25 l S Q
290.563 72.167 m 287.844 69.464 l 297.34 72.148 l 287.859 74.886 l h
f*
0.677557 w
q -1 0.00293878 0.00293878 1 0 145.401611 cm
-290.775 -72.38 m -288.064 -75.091 l -297.553 -72.379 l -288.064 -69.669
 l h
S Q
251.461 72.417 m 251.461 72.464 l 251.457 72.511 l 251.441 72.605 l 251.43
 72.648 l 251.418 72.695 l 251.402 72.734 l 251.387 72.777 l 251.367 72.82
 l 251.348 72.859 l 251.301 72.937 l 251.246 73.007 l 251.215 73.042 l 251.188
 73.073 l 251.152 73.105 l 251.121 73.136 l 251.086 73.163 l 251.051 73.187
 l 251.012 73.214 l 250.973 73.238 l 250.93 73.257 l 250.891 73.277 l 250.848
 73.292 l 250.801 73.308 l 250.758 73.323 l 250.715 73.331 l 250.621 73.347
 l 250.574 73.351 l 250.527 73.351 l 250.016 73.351 249.594 72.925 249.594
 72.417 c 249.594 71.909 250.016 71.484 250.527 71.484 c 251.039 71.484 
251.461 71.909 251.461 72.417 c h
f
259.266 72.417 m 259.266 72.464 l 259.258 72.558 l 259.25 72.605 l 259.238
 72.648 l 259.223 72.695 l 259.211 72.734 l 259.191 72.777 l 259.176 72.82
 l 259.152 72.859 l 259.133 72.898 l 259.109 72.937 l 259.078 72.972 l 259.055
 73.007 l 259.023 73.042 l 258.992 73.073 l 258.957 73.105 l 258.926 73.136
 l 258.891 73.163 l 258.852 73.187 l 258.816 73.214 l 258.777 73.238 l 258.734
 73.257 l 258.699 73.277 l 258.656 73.292 l 258.609 73.308 l 258.566 73.323
 l 258.473 73.339 l 258.43 73.347 l 258.383 73.351 l 258.332 73.351 l 257.824
 73.351 257.398 72.925 257.398 72.417 c 257.398 71.909 257.824 71.484 258.332
 71.484 c 258.848 71.484 259.266 71.909 259.266 72.417 c h
f
267.07 72.417 m 267.07 72.464 l 267.066 72.511 l 267.059 72.558 l 267.055
 72.605 l 267.043 72.648 l 267.027 72.695 l 267.016 72.734 l 267 72.777 
l 266.977 72.82 l 266.938 72.898 l 266.91 72.937 l 266.887 72.972 l 266.859
 73.007 l 266.828 73.042 l 266.766 73.105 l 266.73 73.136 l 266.695 73.163
 l 266.66 73.187 l 266.621 73.214 l 266.582 73.238 l 266.543 73.257 l 266.5
 73.277 l 266.457 73.292 l 266.418 73.308 l 266.371 73.323 l 266.23 73.347
 l 266.188 73.351 l 266.137 73.351 l 265.633 73.351 265.203 72.925 265.203
 72.417 c 265.203 71.909 265.633 71.484 266.137 71.484 c 266.652 71.484 
267.07 71.909 267.07 72.417 c h
f
0.959611 w
q 0 -0.676977 -1 0 0 145.401611 cm
1.189 -244.492 m 29.295 -244.492 l 29.295 -216.391 l 1.189 -216.391 l h
S Q
0.959611 w
q 0 -0.676977 -1 0 0 145.401611 cm
1.189 -216.59 m 29.295 -216.59 l 29.295 -188.488 l 1.189 -188.488 l h
S Q
0.959611 w
q 0 -0.676977 -1 0 0 145.401611 cm
1.189 -188.691 m 29.295 -188.691 l 29.295 -160.59 l 1.189 -160.59 l h
S Q
166.746 132.152 m 166.738 132.132 l 166.738 132.109 l 166.73 132.089 l 
166.727 132.066 l 166.719 132.023 l 166.707 131.976 l 166.699 131.929 l 
166.688 131.886 l 166.676 131.839 l 166.668 131.796 l 166.66 131.773 l 166.656
 131.753 l 166.648 131.734 l 166.648 131.714 l 166.641 131.695 l 166.637
 131.675 l 166.637 131.659 l 166.633 131.64 l 166.629 131.624 l 166.629 
131.609 l 166.617 131.573 l 166.617 131.546 l 166.617 131.296 166.816 131.167
 167.02 131.167 c 167.191 131.167 167.441 131.277 167.543 131.558 c 167.559
 131.589 167.723 132.245 167.809 132.597 c 168.117 133.859 l 168.199 134.167
 168.285 134.476 168.355 134.8 c 168.41 135.038 168.527 135.441 168.539 
135.499 c 168.75 135.937 169.496 137.21 170.82 137.21 c 171.453 137.21 171.582
 136.691 171.582 136.23 c 171.582 135.878 171.48 135.488 171.371 135.066
 c 170.98 133.437 l 170.699 132.374 l 170.641 132.093 170.512 131.62 170.512
 131.546 c 170.512 131.296 170.711 131.167 170.922 131.167 c 171.359 131.167
 171.441 131.519 171.551 131.972 c 171.75 132.753 172.27 134.8 172.395 135.347
 c 172.434 135.531 173.18 137.21 174.707 137.21 c 175.313 137.21 175.465
 136.734 175.465 136.23 c 175.465 135.429 174.875 133.831 174.594 133.089
 c 174.469 132.753 174.414 132.597 174.414 132.316 c 174.414 131.659 174.898
 131.167 175.563 131.167 c 176.883 131.167 177.398 133.214 177.398 133.327
 c 177.398 133.468 177.273 133.468 177.234 133.468 c 177.094 133.468 177.094
 133.425 177.023 133.214 c 176.813 132.472 176.359 131.476 175.594 131.476
 c 175.352 131.476 175.254 131.62 175.254 131.941 c 175.254 132.292 175.383
 132.628 175.504 132.937 c 175.773 133.659 176.359 135.218 176.359 136.019
 c 176.359 136.929 175.797 137.515 174.75 137.515 c 173.695 137.515 172.984
 136.902 172.465 136.159 c 172.449 136.343 172.41 136.82 172.012 137.152
 c 171.664 137.445 171.215 137.515 170.863 137.515 c 169.605 137.515 168.918
 136.62 168.68 136.3 c 168.609 137.101 168.02 137.515 167.387 137.515 c 
166.746 137.515 166.477 136.972 166.348 136.722 c 166.098 136.23 165.914
 135.402 165.914 135.359 c 165.914 135.218 166.055 135.218 166.086 135.218
 c 166.227 135.218 166.238 135.238 166.324 135.542 c 166.559 136.538 166.84
 137.21 167.348 137.21 c 167.574 137.21 167.785 137.101 167.785 136.57 c
 167.785 136.273 167.738 136.116 167.559 135.39 c h
f
181.086 135.464 m 181.086 135.554 l 181.082 135.562 l 181.082 135.597 l
 181.078 135.605 l 181.078 135.632 l 181.074 135.644 l 181.074 135.648 l
 181.066 135.671 l 181.059 135.679 l 181.055 135.687 l 181.047 135.695 l
 181.043 135.702 l 181.035 135.71 l 181.027 135.714 l 181.02 135.722 l 181.008
 135.726 l 180.996 135.726 l 180.98 135.734 l 180.953 135.734 l 180.949 
135.738 l 180.91 135.738 l 180.902 135.741 l 180.789 135.741 l 180.164 135.12
 179.273 135.113 178.871 135.113 c 178.871 134.761 l 179.105 134.761 179.754
 134.761 180.289 135.034 c 180.289 130.034 l 180.289 129.706 180.289 129.581
 179.309 129.581 c 178.941 129.581 l 178.941 129.23 l 179.117 129.238 180.32
 129.269 180.688 129.269 c 180.988 129.269 182.227 129.238 182.438 129.23
 c 182.438 129.581 l 182.066 129.581 l 181.086 129.581 181.086 129.706 181.086
 130.034 c h
f
220.746 132.347 m 220.742 132.327 l 220.738 132.304 l 220.734 132.284 l
 220.73 132.261 l 220.719 132.218 l 220.707 132.171 l 220.699 132.128 l 
220.688 132.081 l 220.676 132.038 l 220.668 131.991 l 220.664 131.972 l 
220.656 131.952 l 220.652 131.929 l 220.641 131.87 l 220.633 131.839 l 220.633
 131.82 l 220.629 131.808 l 220.625 131.792 l 220.621 131.781 l 220.621 
131.745 l 220.621 131.495 220.816 131.366 221.023 131.366 c 221.195 131.366
 221.445 131.476 221.543 131.757 c 221.559 131.788 221.727 132.445 221.809
 132.796 c 222.121 134.054 l 222.203 134.366 222.285 134.671 222.355 134.999
 c 222.414 135.234 222.527 135.64 222.543 135.695 c 222.754 136.132 223.496
 137.406 224.82 137.406 c 225.453 137.406 225.586 136.89 225.586 136.429
 c 225.586 136.077 225.484 135.683 225.371 135.261 c 224.98 133.632 l 224.699
 132.57 l 224.641 132.288 224.516 131.816 224.516 131.745 c 224.516 131.495
 224.711 131.366 224.922 131.366 c 225.359 131.366 225.441 131.718 225.555
 132.167 c 225.75 132.948 226.27 134.999 226.398 135.542 c 226.438 135.726
 227.18 137.406 228.711 137.406 c 229.313 137.406 229.465 136.933 229.465
 136.429 c 229.465 135.624 228.875 134.031 228.594 133.288 c 228.469 132.948
 228.414 132.796 228.414 132.515 c 228.414 131.859 228.902 131.366 229.563
 131.366 c 230.883 131.366 231.402 133.409 231.402 133.523 c 231.402 133.663
 231.273 133.663 231.234 133.663 c 231.094 133.663 231.094 133.62 231.023
 133.409 c 230.813 132.667 230.363 131.675 229.594 131.675 c 229.352 131.675
 229.254 131.816 229.254 132.136 c 229.254 132.488 229.383 132.827 229.508
 133.132 c 229.773 133.859 230.363 135.413 230.363 136.218 c 230.363 137.124
 229.801 137.714 228.75 137.714 c 227.699 137.714 226.984 137.101 226.469
 136.359 c 226.449 136.538 226.41 137.015 226.016 137.351 c 225.664 137.644
 225.219 137.714 224.867 137.714 c 223.605 137.714 222.918 136.82 222.684
 136.499 c 222.613 137.296 222.02 137.714 221.387 137.714 c 220.746 137.714
 220.48 137.171 220.352 136.921 c 220.098 136.429 219.918 135.601 219.918
 135.554 c 219.918 135.413 220.059 135.413 220.09 135.413 c 220.23 135.413
 220.238 135.433 220.324 135.741 c 220.563 136.734 220.844 137.406 221.348
 137.406 c 221.574 137.406 221.785 137.296 221.785 136.765 c 221.785 136.468
 221.738 136.312 221.559 135.585 c h
f
235.086 135.663 m 235.086 135.796 l 235.082 135.804 l 235.082 135.816 l
 235.078 135.823 l 235.078 135.831 l 235.074 135.839 l 235.074 135.847 l
 235.07 135.855 l 235.066 135.866 l 235.063 135.874 l 235.055 135.886 l 
235.051 135.894 l 235.043 135.902 l 235.035 135.906 l 235.027 135.913 l 
235.02 135.917 l 234.984 135.929 l 234.973 135.929 l 234.965 135.933 l 234.953
 135.933 l 234.949 135.937 l 234.793 135.937 l 234.164 135.32 233.273 135.312
 232.871 135.312 c 232.871 134.96 l 233.109 134.96 233.754 134.96 234.289
 135.23 c 234.289 130.23 l 234.289 129.906 234.289 129.777 233.313 129.777
 c 232.941 129.777 l 232.941 129.425 l 233.117 129.433 234.32 129.464 234.688
 129.464 c 234.992 129.464 236.227 129.433 236.441 129.425 c 236.441 129.777
 l 236.066 129.777 l 235.086 129.777 235.086 129.906 235.086 130.23 c h
f
238.848 132.632 m 238.848 132.929 l 238.855 133.077 l 238.863 133.218 l
 238.875 133.363 l 238.887 133.499 l 238.906 133.64 l 238.926 133.773 l 
238.953 133.906 l 238.98 134.034 l 239.02 134.163 l 239.059 134.288 l 239.082
 134.351 l 239.109 134.409 l 239.133 134.472 l 239.16 134.531 l 239.191 
134.589 l 239.219 134.648 l 239.25 134.702 l 239.285 134.757 l 239.621 135.292
 240.145 135.656 240.777 135.656 c 241.07 135.656 241.465 135.573 241.66
 135.312 c 241.414 135.292 241.207 135.124 241.207 134.839 c 241.207 134.593
 241.375 134.378 241.668 134.378 c 241.965 134.378 242.141 134.577 242.141
 134.859 c 242.141 135.429 241.727 135.937 240.754 135.937 c 239.344 135.937
 237.902 134.64 237.902 132.534 c 237.902 129.995 239.098 129.23 240.18 
129.23 c 241.375 129.23 242.41 130.144 242.41 131.429 c 242.41 132.671 241.426
 133.593 240.277 133.593 c 240.227 133.32 l 240.68 133.32 240.98 133.14 
241.223 132.781 c 241.465 132.409 241.473 131.995 241.473 131.429 c 241.473
 130.87 241.473 130.456 241.207 130.073 c 240.973 129.73 240.66 129.546 
240.18 129.546 c 239.688 129.546 239.301 129.827 239.098 130.261 c 238.949
 130.55 238.871 131.046 238.871 131.636 c 238.871 132.585 239.441 133.32
 240.227 133.32 c 240.277 133.593 l 239.492 133.593 239.063 133.077 238.848
 132.632 c h
f
195.262 130.363 m 195.262 130.409 l 195.258 130.456 l 195.242 130.55 l 
195.234 130.593 l 195.219 130.64 l 195.203 130.679 l 195.188 130.722 l 195.168
 130.765 l 195.148 130.804 l 195.102 130.882 l 195.078 130.917 l 195.016
 130.988 l 194.988 131.019 l 194.953 131.05 l 194.922 131.081 l 194.887 
131.109 l 194.852 131.132 l 194.813 131.159 l 194.773 131.183 l 194.73 131.202
 l 194.691 131.222 l 194.648 131.238 l 194.602 131.253 l 194.563 131.269
 l 194.422 131.292 l 194.375 131.296 l 194.328 131.296 l 193.816 131.296
 193.395 130.87 193.395 130.363 c 193.395 129.855 193.816 129.429 194.328
 129.429 c 194.84 129.429 195.262 129.855 195.262 130.363 c h
f
203.066 130.363 m 203.066 130.456 l 203.051 130.55 l 203.039 130.593 l 
203.027 130.64 l 203.012 130.679 l 202.992 130.722 l 202.977 130.765 l 202.953
 130.804 l 202.934 130.843 l 202.91 130.882 l 202.879 130.917 l 202.855 
130.952 l 202.824 130.988 l 202.73 131.081 l 202.695 131.109 l 202.656 131.132
 l 202.621 131.159 l 202.582 131.183 l 202.539 131.202 l 202.5 131.222 l
 202.457 131.238 l 202.41 131.253 l 202.367 131.269 l 202.32 131.277 l 202.277
 131.284 l 202.23 131.292 l 202.184 131.296 l 202.133 131.296 l 201.625 
131.296 201.203 130.87 201.203 130.363 c 201.203 129.855 201.625 129.429
 202.133 129.429 c 202.648 129.429 203.066 129.855 203.066 130.363 c h
f
210.871 130.363 m 210.871 130.409 l 210.863 130.503 l 210.855 130.55 l 
210.844 130.593 l 210.828 130.64 l 210.816 130.679 l 210.801 130.722 l 210.781
 130.765 l 210.758 130.804 l 210.738 130.843 l 210.715 130.882 l 210.633
 130.988 l 210.602 131.019 l 210.531 131.081 l 210.496 131.109 l 210.461
 131.132 l 210.422 131.159 l 210.383 131.183 l 210.305 131.222 l 210.219
 131.253 l 210.172 131.269 l 210.078 131.284 l 210.035 131.292 l 209.988
 131.296 l 209.938 131.296 l 209.434 131.296 209.004 130.87 209.004 130.363
 c 209.004 129.855 209.434 129.429 209.938 129.429 c 210.453 129.429 210.871
 129.855 210.871 130.363 c h
f
0.959611 w
q 0 -0.676977 -1 0 0 145.401611 cm
0.473 -119.609 m 28.579 -119.609 l 28.579 -91.508 l 0.473 -91.508 l h
S Q
0.959611 w
q 0 -0.676977 -1 0 0 145.401611 cm
0.473 -91.711 m 28.579 -91.711 l 28.579 -63.609 l 0.473 -63.609 l h
S Q
0.959611 w
q 0 -0.676977 -1 0 0 145.401611 cm
0.473 -63.813 m 28.579 -63.813 l 28.579 -35.707 l 0.473 -35.707 l h
S Q
41.863 132.636 m 41.859 132.616 l 41.855 132.593 l 41.852 132.573 l 41.848
 132.55 l 41.836 132.503 l 41.824 132.46 l 41.816 132.413 l 41.805 132.37
 l 41.793 132.323 l 41.785 132.281 l 41.781 132.257 l 41.773 132.238 l 41.758
 132.159 l 41.754 132.144 l 41.75 132.124 l 41.75 132.109 l 41.746 132.093
 l 41.742 132.081 l 41.742 132.07 l 41.738 132.058 l 41.738 132.031 l 41.738
 131.781 41.934 131.652 42.141 131.652 c 42.313 131.652 42.563 131.761 42.66
 132.042 c 42.676 132.073 42.844 132.73 42.93 133.081 c 43.238 134.343 l
 43.32 134.652 43.402 134.96 43.473 135.284 c 43.531 135.523 43.645 135.925
 43.66 135.984 c 43.871 136.417 44.613 137.695 45.938 137.695 c 46.57 137.695
 46.703 137.175 46.703 136.714 c 46.703 136.363 46.602 135.972 46.492 135.55
 c 46.098 133.921 l 45.816 132.855 l 45.758 132.573 45.633 132.101 45.633
 132.031 c 45.633 131.781 45.828 131.652 46.039 131.652 c 46.477 131.652
 46.563 132.003 46.672 132.452 c 46.867 133.238 47.387 135.284 47.516 135.831
 c 47.555 136.015 48.297 137.695 49.828 137.695 c 50.43 137.695 50.582 137.218
 50.582 136.714 c 50.582 135.913 49.992 134.316 49.711 133.573 c 49.586 
133.238 49.531 133.081 49.531 132.8 c 49.531 132.144 50.02 131.652 50.68
 131.652 c 52 131.652 52.52 133.698 52.52 133.812 c 52.52 133.952 52.391
 133.952 52.352 133.952 c 52.211 133.952 52.211 133.909 52.141 133.698 c
 51.93 132.956 51.48 131.96 50.711 131.96 c 50.469 131.96 50.371 132.101
 50.371 132.425 c 50.371 132.777 50.5 133.113 50.625 133.421 c 50.891 134.144
 51.48 135.702 51.48 136.503 c 51.48 137.413 50.918 137.999 49.867 137.999
 c 48.816 137.999 48.102 137.386 47.586 136.644 c 47.566 136.827 47.527 
137.304 47.133 137.636 c 46.781 137.929 46.336 137.999 45.984 137.999 c 
44.723 137.999 44.035 137.105 43.801 136.784 c 43.73 137.585 43.141 137.999
 42.508 137.999 c 41.863 137.999 41.598 137.456 41.469 137.206 c 41.219 
136.714 41.035 135.886 41.035 135.843 c 41.035 135.702 41.176 135.702 41.207
 135.702 c 41.348 135.702 41.359 135.722 41.441 136.027 c 41.68 137.023 
41.961 137.695 42.465 137.695 c 42.691 137.695 42.902 137.585 42.902 137.054
 c 42.902 136.757 42.859 136.601 42.676 135.874 c h
f
56.203 135.948 m 56.203 136.081 l 56.199 136.089 l 56.199 136.105 l 56.195
 136.113 l 56.195 136.116 l 56.191 136.128 l 56.191 136.132 l 56.184 136.156
 l 56.18 136.163 l 56.172 136.171 l 56.164 136.187 l 56.152 136.195 l 56.145
 136.198 l 56.137 136.206 l 56.125 136.206 l 56.113 136.21 l 56.102 136.218
 l 56.07 136.218 l 56.066 136.222 l 56.031 136.222 l 56.02 136.226 l 55.91
 136.226 l 55.281 135.605 54.391 135.597 53.988 135.597 c 53.988 135.245
 l 54.227 135.245 54.875 135.245 55.406 135.519 c 55.406 130.519 l 55.406
 130.191 55.406 130.066 54.43 130.066 c 54.059 130.066 l 54.059 129.714 
l 54.234 129.722 55.438 129.753 55.805 129.753 c 56.109 129.753 57.344 129.722
 57.559 129.714 c 57.559 130.066 l 57.184 130.066 l 56.203 130.066 56.203
 130.191 56.203 130.519 c h
f
95.867 132.831 m 95.859 132.812 l 95.855 132.788 l 95.852 132.769 l 95.848
 132.745 l 95.836 132.702 l 95.828 132.656 l 95.816 132.613 l 95.809 132.566
 l 95.797 132.523 l 95.785 132.476 l 95.781 132.452 l 95.777 132.433 l 95.77
 132.413 l 95.758 132.355 l 95.758 132.339 l 95.754 132.323 l 95.75 132.304
 l 95.746 132.292 l 95.746 132.277 l 95.738 132.253 l 95.738 132.23 l 95.738
 131.98 95.938 131.851 96.141 131.851 c 96.313 131.851 96.563 131.96 96.664
 132.241 c 96.68 132.273 96.844 132.929 96.93 133.281 c 97.238 134.538 l
 97.32 134.851 97.406 135.156 97.477 135.484 c 97.531 135.718 97.648 136.124
 97.66 136.179 c 97.871 136.616 98.613 137.89 99.941 137.89 c 100.574 137.89
 100.703 137.374 100.703 136.913 c 100.703 136.562 100.602 136.167 100.492
 135.745 c 100.102 134.116 l 99.82 133.054 l 99.762 132.773 99.633 132.3
 99.633 132.23 c 99.633 131.98 99.832 131.851 100.043 131.851 c 100.477 
131.851 100.563 132.202 100.672 132.652 c 100.867 133.433 101.391 135.484
 101.516 136.027 c 101.555 136.21 102.297 137.89 103.828 137.89 c 104.43
 137.89 104.582 137.417 104.582 136.913 c 104.582 136.109 103.996 134.515
 103.715 133.773 c 103.586 133.433 103.535 133.281 103.535 132.999 c 103.535
 132.343 104.02 131.851 104.684 131.851 c 106 131.851 106.52 133.894 106.52
 134.007 c 106.52 134.148 106.395 134.148 106.355 134.148 c 106.211 134.148
 106.211 134.105 106.141 133.894 c 105.93 133.152 105.48 132.159 104.715
 132.159 c 104.473 132.159 104.371 132.3 104.371 132.62 c 104.371 132.972
 104.504 133.308 104.625 133.616 c 104.895 134.343 105.48 135.898 105.48
 136.702 c 105.48 137.609 104.918 138.198 103.867 138.198 c 102.816 138.198
 102.105 137.585 101.586 136.843 c 101.57 137.023 101.531 137.499 101.133
 137.835 c 100.785 138.128 100.336 138.198 99.984 138.198 c 98.727 138.198
 98.039 137.304 97.801 136.984 c 97.73 137.781 97.141 138.198 96.508 138.198
 c 95.867 138.198 95.598 137.656 95.469 137.406 c 95.219 136.913 95.035 
136.085 95.035 136.038 c 95.035 135.898 95.176 135.898 95.207 135.898 c 
95.348 135.898 95.359 135.917 95.445 136.226 c 95.68 137.218 95.961 137.89
 96.469 137.89 c 96.691 137.89 96.902 137.781 96.902 137.249 c 96.902 136.952
 96.859 136.796 96.68 136.07 c h
f
110.207 136.148 m 110.207 136.234 l 110.203 136.245 l 110.203 136.277 l
 110.199 136.288 l 110.199 136.316 l 110.195 136.323 l 110.195 136.327 l
 110.188 136.339 l 110.188 136.351 l 110.18 136.359 l 110.176 136.37 l 110.168
 136.378 l 110.164 136.386 l 110.156 136.39 l 110.148 136.398 l 110.137 
136.402 l 110.129 136.406 l 110.117 136.409 l 110.102 136.413 l 110.09 136.413
 l 110.082 136.417 l 110.031 136.417 l 110.023 136.421 l 109.91 136.421 
l 109.281 135.804 108.395 135.796 107.992 135.796 c 107.992 135.445 l 108.227
 135.445 108.875 135.445 109.41 135.714 c 109.41 130.714 l 109.41 130.39
 109.41 130.261 108.43 130.261 c 108.063 130.261 l 108.063 129.909 l 108.234
 129.917 109.441 129.948 109.805 129.948 c 110.109 129.948 111.344 129.917
 111.559 129.909 c 111.559 130.261 l 111.184 130.261 l 110.207 130.261 110.207
 130.39 110.207 130.714 c h
f
113.965 133.116 m 113.965 133.265 l 113.973 133.562 l 113.98 133.702 l 
113.992 133.847 l 114.004 133.984 l 114.023 134.124 l 114.043 134.257 l 
114.074 134.39 l 114.102 134.519 l 114.137 134.648 l 114.18 134.773 l 114.203
 134.835 l 114.227 134.894 l 114.254 134.956 l 114.277 135.015 l 114.34 
135.132 l 114.371 135.187 l 114.406 135.241 l 114.738 135.777 115.266 136.136
 115.895 136.136 c 116.191 136.136 116.582 136.058 116.781 135.796 c 116.531
 135.777 116.328 135.609 116.328 135.323 c 116.328 135.077 116.496 134.863
 116.789 134.863 c 117.082 134.863 117.258 135.062 117.258 135.343 c 117.258
 135.913 116.848 136.421 115.875 136.421 c 114.465 136.421 113.02 135.124
 113.02 133.019 c 113.02 130.48 114.215 129.714 115.301 129.714 c 116.496
 129.714 117.531 130.628 117.531 131.909 c 117.531 133.156 116.543 134.077
 115.395 134.077 c 115.348 133.804 l 115.801 133.804 116.102 133.624 116.344
 133.265 c 116.582 132.894 116.59 132.48 116.59 131.909 c 116.59 131.355
 116.59 130.941 116.328 130.558 c 116.09 130.214 115.777 130.031 115.301
 130.031 c 114.809 130.031 114.422 130.312 114.215 130.745 c 114.07 131.034
 113.992 131.527 113.992 132.12 c 113.992 133.07 114.563 133.804 115.348
 133.804 c 115.395 134.077 l 114.613 134.077 114.184 133.562 113.965 133.116
 c h
f
70.492 130.847 m 70.492 130.894 l 70.488 130.941 l 70.48 130.988 l 70.477
 131.034 l 70.465 131.077 l 70.449 131.12 l 70.438 131.163 l 70.418 131.206
 l 70.402 131.249 l 70.379 131.288 l 70.359 131.327 l 70.332 131.366 l 70.309
 131.402 l 70.281 131.437 l 70.25 131.472 l 70.223 131.503 l 70.184 131.534
 l 70.152 131.566 l 70.117 131.593 l 70.082 131.616 l 70.043 131.64 l 70.004
 131.667 l 69.961 131.687 l 69.922 131.706 l 69.883 131.722 l 69.836 131.738
 l 69.793 131.753 l 69.699 131.769 l 69.656 131.777 l 69.609 131.781 l 69.559
 131.781 l 69.051 131.781 68.625 131.355 68.625 130.847 c 68.625 130.335
 69.051 129.913 69.559 129.913 c 70.07 129.913 70.492 130.335 70.492 130.847
 c h
f
78.301 130.847 m 78.301 130.894 l 78.297 130.941 l 78.281 131.034 l 78.273
 131.077 l 78.227 131.206 l 78.207 131.249 l 78.168 131.327 l 78.141 131.366
 l 78.113 131.402 l 78.09 131.437 l 77.961 131.566 l 77.926 131.593 l 77.887
 131.616 l 77.852 131.64 l 77.813 131.667 l 77.77 131.687 l 77.73 131.706
 l 77.602 131.753 l 77.461 131.777 l 77.418 131.781 l 77.367 131.781 l 76.859
 131.781 76.434 131.355 76.434 130.847 c 76.434 130.335 76.859 129.913 77.367
 129.913 c 77.879 129.913 78.301 130.335 78.301 130.847 c h
f
86.105 130.847 m 86.105 130.894 l 86.102 130.941 l 86.086 131.034 l 86.063
 131.12 l 86.047 131.163 l 86.035 131.206 l 86.012 131.249 l 85.992 131.288
 l 85.945 131.366 l 85.922 131.402 l 85.891 131.437 l 85.863 131.472 l 85.801
 131.534 l 85.766 131.566 l 85.73 131.593 l 85.695 131.616 l 85.656 131.64
 l 85.617 131.667 l 85.578 131.687 l 85.535 131.706 l 85.449 131.738 l 85.402
 131.753 l 85.359 131.761 l 85.266 131.777 l 85.219 131.781 l 85.172 131.781
 l 84.664 131.781 84.238 131.355 84.238 130.847 c 84.238 130.335 84.664 
129.913 85.172 129.913 c 85.688 129.913 86.105 130.335 86.105 130.847 c 
h
f
0.959611 w
q 0 -0.676977 -1 0 0 145.401611 cm
1.189 -358.715 m 29.295 -358.715 l 29.295 -330.613 l 1.189 -330.613 l h
S Q
0.959611 w
q 0 -0.676977 -1 0 0 145.401611 cm
1.189 -330.816 m 29.295 -330.816 l 29.295 -302.715 l 1.189 -302.715 l h
S Q
0.959611 w
q 0 -0.676977 -1 0 0 145.401611 cm
1.189 -302.918 m 29.295 -302.918 l 29.295 -274.813 l 1.189 -274.813 l h
S Q
280.969 132.152 m 280.965 132.132 l 280.961 132.109 l 280.957 132.089 l
 280.953 132.066 l 280.941 132.023 l 280.93 131.976 l 280.922 131.929 l 
280.91 131.886 l 280.898 131.839 l 280.891 131.796 l 280.887 131.773 l 280.879
 131.753 l 280.863 131.675 l 280.859 131.659 l 280.859 131.64 l 280.852 
131.609 l 280.848 131.597 l 280.848 131.585 l 280.844 131.573 l 280.844 
131.546 l 280.844 131.296 281.039 131.167 281.246 131.167 c 281.418 131.167
 281.668 131.277 281.766 131.558 c 281.785 131.589 281.949 132.245 282.035
 132.597 c 282.344 133.859 l 282.426 134.167 282.508 134.476 282.578 134.8
 c 282.637 135.038 282.75 135.441 282.766 135.499 c 282.977 135.937 283.719
 137.21 285.043 137.21 c 285.68 137.21 285.809 136.691 285.809 136.23 c 
285.809 135.878 285.707 135.488 285.598 135.066 c 285.207 133.437 l 284.926
 132.374 l 284.863 132.093 284.738 131.62 284.738 131.546 c 284.738 131.296
 284.934 131.167 285.145 131.167 c 285.582 131.167 285.668 131.519 285.777
 131.972 c 285.973 132.753 286.492 134.8 286.621 135.347 c 286.66 135.531
 287.402 137.21 288.934 137.21 c 289.535 137.21 289.688 136.734 289.688 
136.23 c 289.688 135.429 289.102 133.831 288.82 133.089 c 288.691 132.753
 288.637 132.597 288.637 132.316 c 288.637 131.659 289.125 131.167 289.785
 131.167 c 291.105 131.167 291.625 133.214 291.625 133.327 c 291.625 133.468
 291.496 133.468 291.457 133.468 c 291.316 133.468 291.316 133.425 291.246
 133.214 c 291.035 132.472 290.586 131.476 289.816 131.476 c 289.574 131.476
 289.477 131.62 289.477 131.941 c 289.477 132.292 289.605 132.628 289.73
 132.937 c 289.996 133.659 290.586 135.218 290.586 136.019 c 290.586 136.929
 290.023 137.515 288.973 137.515 c 287.922 137.515 287.207 136.902 286.691
 136.159 c 286.676 136.343 286.637 136.82 286.238 137.152 c 285.891 137.445
 285.441 137.515 285.09 137.515 c 283.828 137.515 283.145 136.62 282.906
 136.3 c 282.836 137.101 282.246 137.515 281.613 137.515 c 280.969 137.515
 280.703 136.972 280.574 136.722 c 280.324 136.23 280.141 135.402 280.141
 135.359 c 280.141 135.218 280.281 135.218 280.313 135.218 c 280.453 135.218
 280.465 135.238 280.547 135.542 c 280.785 136.538 281.066 137.21 281.574
 137.21 c 281.797 137.21 282.008 137.101 282.008 136.57 c 282.008 136.273
 281.965 136.116 281.785 135.39 c h
f
295.309 135.464 m 295.309 135.597 l 295.305 135.605 l 295.305 135.62 l 
295.301 135.628 l 295.301 135.648 l 295.293 135.659 l 295.289 135.671 l 
295.281 135.687 l 295.273 135.695 l 295.27 135.702 l 295.258 135.71 l 295.25
 135.714 l 295.242 135.722 l 295.23 135.726 l 295.219 135.726 l 295.207 
135.734 l 295.18 135.734 l 295.172 135.738 l 295.137 135.738 l 295.129 135.741
 l 295.016 135.741 l 294.387 135.12 293.5 135.113 293.098 135.113 c 293.098
 134.761 l 293.332 134.761 293.98 134.761 294.516 135.034 c 294.516 130.034
 l 294.516 129.706 294.516 129.581 293.535 129.581 c 293.168 129.581 l 293.168
 129.23 l 293.34 129.238 294.547 129.269 294.91 129.269 c 295.215 129.269
 296.449 129.238 296.664 129.23 c 296.664 129.581 l 296.289 129.581 l 295.309
 129.581 295.309 129.706 295.309 130.034 c h
f
334.973 132.347 m 334.965 132.327 l 334.965 132.304 l 334.957 132.284 l
 334.953 132.261 l 334.945 132.218 l 334.934 132.171 l 334.926 132.128 l
 334.914 132.081 l 334.902 132.038 l 334.895 131.991 l 334.887 131.972 l
 334.883 131.952 l 334.875 131.929 l 334.875 131.909 l 334.867 131.89 l 
334.863 131.87 l 334.863 131.855 l 334.859 131.839 l 334.855 131.82 l 334.855
 131.808 l 334.852 131.792 l 334.844 131.769 l 334.844 131.745 l 334.844
 131.495 335.043 131.366 335.246 131.366 c 335.418 131.366 335.668 131.476
 335.77 131.757 c 335.785 131.788 335.949 132.445 336.035 132.796 c 336.344
 134.054 l 336.426 134.366 336.512 134.671 336.582 134.999 c 336.637 135.234
 336.754 135.64 336.766 135.695 c 336.977 136.132 337.723 137.406 339.047
 137.406 c 339.68 137.406 339.809 136.89 339.809 136.429 c 339.809 136.077
 339.707 135.683 339.598 135.261 c 339.207 133.632 l 338.926 132.57 l 338.867
 132.288 338.738 131.816 338.738 131.745 c 338.738 131.495 338.938 131.366
 339.148 131.366 c 339.582 131.366 339.668 131.718 339.777 132.167 c 339.977
 132.948 340.496 134.999 340.621 135.542 c 340.66 135.726 341.406 137.406
 342.934 137.406 c 343.539 137.406 343.691 136.933 343.691 136.429 c 343.691
 135.624 343.102 134.031 342.82 133.288 c 342.691 132.948 342.641 132.796
 342.641 132.515 c 342.641 131.859 343.125 131.366 343.789 131.366 c 345.109
 131.366 345.625 133.409 345.625 133.523 c 345.625 133.663 345.5 133.663
 345.461 133.663 c 345.32 133.663 345.32 133.62 345.25 133.409 c 345.039
 132.667 344.586 131.675 343.82 131.675 c 343.578 131.675 343.477 131.816
 343.477 132.136 c 343.477 132.488 343.609 132.827 343.73 133.132 c 344 
133.859 344.586 135.413 344.586 136.218 c 344.586 137.124 344.023 137.714
 342.977 137.714 c 341.922 137.714 341.211 137.101 340.691 136.359 c 340.676
 136.538 340.637 137.015 340.238 137.351 c 339.891 137.644 339.441 137.714
 339.09 137.714 c 337.832 137.714 337.145 136.82 336.906 136.499 c 336.836
 137.296 336.246 137.714 335.613 137.714 c 334.973 137.714 334.703 137.171
 334.574 136.921 c 334.324 136.429 334.141 135.601 334.141 135.554 c 334.141
 135.413 334.281 135.413 334.313 135.413 c 334.453 135.413 334.465 135.433
 334.551 135.741 c 334.785 136.734 335.066 137.406 335.574 137.406 c 335.801
 137.406 336.012 137.296 336.012 136.765 c 336.012 136.468 335.965 136.312
 335.785 135.585 c h
f
349.313 135.663 m 349.313 135.749 l 349.309 135.761 l 349.309 135.796 l
 349.305 135.804 l 349.305 135.831 l 349.301 135.839 l 349.301 135.847 l
 349.297 135.855 l 349.293 135.866 l 349.285 135.874 l 349.281 135.886 l
 349.273 135.894 l 349.27 135.902 l 349.262 135.906 l 349.254 135.913 l 
349.246 135.917 l 349.223 135.925 l 349.207 135.929 l 349.195 135.929 l 
349.188 135.933 l 349.18 135.933 l 349.176 135.937 l 349.016 135.937 l 348.391
 135.32 347.5 135.312 347.098 135.312 c 347.098 134.96 l 347.332 134.96 
347.98 134.96 348.516 135.23 c 348.516 130.23 l 348.516 129.906 348.516 
129.777 347.535 129.777 c 347.168 129.777 l 347.168 129.425 l 347.344 129.433
 348.547 129.464 348.914 129.464 c 349.215 129.464 350.453 129.433 350.664
 129.425 c 350.664 129.777 l 350.293 129.777 l 349.313 129.777 349.313 129.906
 349.313 130.23 c h
f
353.07 132.632 m 353.07 132.781 l 353.078 133.077 l 353.09 133.218 l 353.098
 133.363 l 353.109 133.499 l 353.129 133.64 l 353.148 133.773 l 353.18 133.906
 l 353.207 134.034 l 353.242 134.163 l 353.285 134.288 l 353.309 134.351
 l 353.332 134.409 l 353.359 134.472 l 353.383 134.531 l 353.445 134.648
 l 353.477 134.702 l 353.512 134.757 l 353.844 135.292 354.371 135.656 355
 135.656 c 355.297 135.656 355.688 135.573 355.887 135.312 c 355.637 135.292
 355.434 135.124 355.434 134.839 c 355.434 134.593 355.602 134.378 355.895
 134.378 c 356.188 134.378 356.363 134.577 356.363 134.859 c 356.363 135.429
 355.953 135.937 354.98 135.937 c 353.57 135.937 352.125 134.64 352.125 
132.534 c 352.125 129.995 353.32 129.23 354.406 129.23 c 355.602 129.23 
356.637 130.144 356.637 131.429 c 356.637 132.671 355.648 133.593 354.5 
133.593 c 354.453 133.32 l 354.906 133.32 355.207 133.14 355.449 132.781
 c 355.688 132.409 355.695 131.995 355.695 131.429 c 355.695 130.87 355.695
 130.456 355.434 130.073 c 355.195 129.73 354.883 129.546 354.406 129.546
 c 353.914 129.546 353.527 129.827 353.32 130.261 c 353.176 130.55 353.098
 131.046 353.098 131.636 c 353.098 132.585 353.668 133.32 354.453 133.32
 c 354.5 133.593 l 353.719 133.593 353.289 133.077 353.07 132.632 c h
f
309.672 130.363 m 309.672 130.409 l 309.668 130.456 l 309.652 130.55 l 
309.645 130.593 l 309.629 130.64 l 309.613 130.679 l 309.598 130.722 l 309.578
 130.765 l 309.539 130.843 l 309.512 130.882 l 309.488 130.917 l 309.461
 130.952 l 309.426 130.988 l 309.398 131.019 l 309.363 131.05 l 309.332 
131.081 l 309.297 131.109 l 309.262 131.132 l 309.223 131.159 l 309.184 
131.183 l 309.141 131.202 l 309.102 131.222 l 308.973 131.269 l 308.832 
131.292 l 308.789 131.296 l 308.738 131.296 l 308.23 131.296 307.805 130.87
 307.805 130.363 c 307.805 129.855 308.23 129.429 308.738 129.429 c 309.25
 129.429 309.672 129.855 309.672 130.363 c h
f
317.48 130.363 m 317.48 130.409 l 317.477 130.456 l 317.461 130.55 l 317.449
 130.593 l 317.438 130.64 l 317.422 130.679 l 317.406 130.722 l 317.387 
130.765 l 317.367 130.804 l 317.32 130.882 l 317.266 130.952 l 317.234 130.988
 l 317.141 131.081 l 317.105 131.109 l 317.066 131.132 l 317.031 131.159
 l 316.992 131.183 l 316.949 131.202 l 316.91 131.222 l 316.867 131.238 
l 316.82 131.253 l 316.777 131.269 l 316.734 131.277 l 316.641 131.292 l
 316.594 131.296 l 316.547 131.296 l 316.035 131.296 315.613 130.87 315.613
 130.363 c 315.613 129.855 316.035 129.429 316.547 129.429 c 317.059 129.429
 317.48 129.855 317.48 130.363 c h
f
325.281 130.363 m 325.281 130.456 l 325.266 130.55 l 325.254 130.593 l 
325.242 130.64 l 325.227 130.679 l 325.211 130.722 l 325.191 130.765 l 325.168
 130.804 l 325.148 130.843 l 325.125 130.882 l 325.043 130.988 l 324.98 
131.05 l 324.945 131.081 l 324.906 131.109 l 324.871 131.132 l 324.832 131.159
 l 324.797 131.183 l 324.758 131.202 l 324.715 131.222 l 324.629 131.253
 l 324.582 131.269 l 324.535 131.277 l 324.492 131.284 l 324.445 131.292
 l 324.398 131.296 l 324.348 131.296 l 323.844 131.296 323.414 130.87 323.414
 130.363 c 323.414 129.855 323.844 129.429 324.348 129.429 c 324.867 129.429
 325.281 129.855 325.281 130.363 c h
f
410.988 72.245 m 416.262 72.245 l 416.523 72.245 416.883 72.245 416.883
 72.628 c 416.883 73.007 416.523 73.007 416.262 73.007 c 410.988 73.007 
l 410.988 78.3 l 410.988 78.558 410.988 78.921 410.609 78.921 c 410.234 
78.921 410.234 78.558 410.234 78.3 c 410.234 73.007 l 404.945 73.007 l 404.676
 73.007 404.324 73.007 404.324 72.628 c 404.324 72.245 404.676 72.245 404.945
 72.245 c 410.234 72.245 l 410.234 66.96 l 410.234 66.695 410.234 66.335
 410.609 66.335 c 410.988 66.335 410.988 66.695 410.988 66.96 c h
f
Q Q
showpage
%%Trailer
count op_count sub {pop} repeat
countdictstack dict_count sub {end} repeat
cairo_eps_state restore
%%EOF
