%!PS-Adobe-3.0 EPSF-3.0
%%Creator: cairo 1.11.2 (http://cairographics.org)
%%CreationDate: Wed Jan 07 14:02:02 2015
%%Pages: 1
%%DocumentData: Clean7Bit
%%LanguageLevel: 2
%%BoundingBox: 0 -1 514 128
%%EndComments
%%BeginProlog
/cairo_eps_state save def
/dict_count countdictstack def
/op_count count 1 sub def
userdict begin
/q { gsave } bind def
/Q { grestore } bind def
/cm { 6 array astore concat } bind def
/w { setlinewidth } bind def
/J { setlinecap } bind def
/j { setlinejoin } bind def
/M { setmiterlimit } bind def
/d { setdash } bind def
/m { moveto } bind def
/l { lineto } bind def
/c { curveto } bind def
/h { closepath } bind def
/re { exch dup neg 3 1 roll 5 3 roll moveto 0 rlineto
      0 exch rlineto 0 rlineto closepath } bind def
/S { stroke } bind def
/f { fill } bind def
/f* { eofill } bind def
/n { newpath } bind def
/W { clip } bind def
/W* { eoclip } bind def
/BT { } bind def
/ET { } bind def
/pdfmark where { pop globaldict /?pdfmark /exec load put }
    { globaldict begin /?pdfmark /pop load def /pdfmark
    /cleartomark load def end } ifelse
/BDC { mark 3 1 roll /BDC pdfmark } bind def
/EMC { mark /EMC pdfmark } bind def
/cairo_store_point { /cairo_point_y exch def /cairo_point_x exch def } def
/Tj { show currentpoint cairo_store_point } bind def
/TJ {
  {
    dup
    type /stringtype eq
    { show } { -0.001 mul 0 cairo_font_matrix dtransform rmoveto } ifelse
  } forall
  currentpoint cairo_store_point
} bind def
/cairo_selectfont { cairo_font_matrix aload pop pop pop 0 0 6 array astore
    cairo_font exch selectfont cairo_point_x cairo_point_y moveto } bind def
/Tf { pop /cairo_font exch def /cairo_font_matrix where
      { pop cairo_selectfont } if } bind def
/Td { matrix translate cairo_font_matrix matrix concatmatrix dup
      /cairo_font_matrix exch def dup 4 get exch 5 get cairo_store_point
      /cairo_font where { pop cairo_selectfont } if } bind def
/Tm { 2 copy 8 2 roll 6 array astore /cairo_font_matrix exch def
      cairo_store_point /cairo_font where { pop cairo_selectfont } if } bind def
/g { setgray } bind def
/rg { setrgbcolor } bind def
/d1 { setcachedevice } bind def
%%EndProlog
%%Page: 1 1
%%BeginPageSetup
%%PageBoundingBox: 0 -1 514 128
%%EndPageSetup
q 0 -1 514 129 rectclip q
0 127.271 514 -128 re W n
0 g
0.749907 w
0 J
0 j
[] 0.0 d
4 M q 1 0 0 -1 0 127.270805 cm
73.242 51.629 m 73.242 126.621 l 112.344 103.59 l 112.344 74.664 l h
S Q
10.121 48.646 m 10.145 48.743 l 10.168 48.837 l 10.191 48.927 l 10.215 
49.009 l 10.238 49.095 l 10.262 49.169 l 10.293 49.243 l 10.32 49.306 l 
10.352 49.372 l 10.387 49.439 l 10.43 49.493 l 10.469 49.544 l 10.52 49.599
 l 10.566 49.646 l 10.684 49.732 l 10.758 49.767 l 10.828 49.802 l 10.91
 49.829 l 11 49.861 l 11.102 49.884 l 11.148 49.896 l 11.203 49.908 l 11.32
 49.931 l 11.383 49.939 l 11.441 49.95 l 11.508 49.954 l 11.578 49.962 l
 11.648 49.974 l 11.719 49.982 l 11.797 49.986 l 11.875 49.986 l 11.953 
49.993 l 12.035 49.997 l 12.125 50.005 l 12.309 50.005 l 12.406 50.009 l
 12.816 50.009 l 13.523 50.009 13.766 50.009 13.766 50.579 c 13.766 50.931
 13.441 50.931 13.32 50.931 c 12.453 50.931 10.258 50.837 9.406 50.837 c
 8.512 50.837 6.352 50.931 5.461 50.931 c 5.258 50.931 4.863 50.931 4.863
 50.337 c 4.863 50.009 5.137 50.009 5.691 50.009 c 6.941 50.009 7.738 50.009
 7.738 49.443 c 7.738 49.294 7.738 49.243 7.684 48.97 c 3.688 32.993 l 3.414
 31.9 3.324 31.603 0.977 31.603 c 0.301 31.603 0.031 31.603 0.031 31.009
 c 0.031 30.681 0.395 30.681 0.477 30.681 c 1.34 30.681 3.5 30.775 4.363
 30.775 c 5.258 30.775 7.453 30.681 8.332 30.681 c 8.578 30.681 8.93 30.681
 8.93 31.247 c 8.93 31.603 8.684 31.603 8.035 31.603 c 7.508 31.603 7.359
 31.603 6.762 31.658 c 6.137 31.72 6.031 31.833 6.031 32.158 c 6.031 32.4
 6.086 32.63 6.137 32.845 c h
f
32.996 47.544 m 33.133 47.759 l 33.27 47.958 l 33.402 48.142 l 33.539 48.314
 l 33.668 48.482 l 33.793 48.63 l 33.926 48.771 l 34.055 48.904 l 34.18 
49.021 l 34.305 49.134 l 34.43 49.236 l 34.555 49.329 l 34.676 49.415 l 
34.793 49.493 l 34.918 49.564 l 35.039 49.63 l 35.148 49.681 l 35.27 49.736
 l 35.383 49.779 l 35.5 49.818 l 35.613 49.857 l 35.727 49.884 l 35.836 
49.908 l 35.949 49.927 l 36.055 49.943 l 36.168 49.962 l 36.383 49.986 l
 36.797 50.009 l 37.156 50.04 37.18 50.54 37.18 50.579 c 37.18 50.814 37.031
 50.931 36.797 50.931 c 36.031 50.931 35.164 50.837 34.363 50.837 c 33.387
 50.837 32.371 50.931 31.426 50.931 c 31.246 50.931 30.867 50.931 30.867
 50.368 c 30.867 50.04 31.141 50.009 31.34 50.009 c 32.141 49.954 32.711
 49.658 32.711 49.033 c 32.711 48.587 32.266 47.939 32.266 47.908 c 23.16
 33.443 l 21.141 49.118 l 21.141 49.622 21.82 50.009 23.188 50.009 c 23.605
 50.009 23.934 50.009 23.934 50.607 c 23.934 50.868 23.688 50.931 23.508
 50.931 c 22.332 50.931 21.047 50.837 19.836 50.837 c 19.301 50.837 18.742
 50.868 18.199 50.868 c 17.672 50.868 17.105 50.931 16.602 50.931 c 16.398
 50.931 16.047 50.931 16.047 50.368 c 16.047 50.009 16.301 50.009 16.777
 50.009 c 18.445 50.009 18.477 49.743 18.563 49.009 c 20.898 30.708 l 20.992
 30.115 21.109 30.033 21.492 30.033 c 21.969 30.033 22.086 30.181 22.332
 30.56 c h
f
100.391 124.954 m 100.414 125.048 l 100.438 125.146 l 100.461 125.236 l
 100.488 125.318 l 100.512 125.4 l 100.535 125.478 l 100.559 125.548 l 100.586
 125.615 l 100.648 125.747 l 100.688 125.798 l 100.723 125.853 l 100.773
 125.908 l 100.82 125.954 l 100.875 125.997 l 100.926 126.036 l 100.992 
126.075 l 101.063 126.111 l 101.141 126.138 l 101.223 126.169 l 101.313 
126.193 l 101.367 126.204 l 101.414 126.216 l 101.523 126.24 l 101.582 126.247
 l 101.641 126.259 l 101.699 126.263 l 101.766 126.271 l 101.832 126.283
 l 101.902 126.286 l 101.973 126.294 l 102.047 126.294 l 102.125 126.298
 l 102.199 126.306 l 102.285 126.31 l 102.457 126.31 l 102.547 126.318 l
 102.938 126.318 l 103.617 126.318 103.891 126.318 103.891 126.911 c 103.891
 127.24 103.594 127.24 103.086 127.24 c 99.172 127.24 l 98.402 127.24 98.375
 127.24 98.023 126.673 c 87.199 109.779 l 84.883 126.548 l 84.789 127.24
 84.734 127.24 83.961 127.24 c 79.895 127.24 l 79.34 127.24 79.016 127.24
 79.016 126.673 c 79.016 126.318 79.277 126.318 79.871 126.318 c 80.258 
126.318 80.789 126.294 81.145 126.263 c 81.613 126.2 81.793 126.115 81.793
 125.786 c 81.793 125.669 81.766 125.575 81.68 125.224 c 77.914 110.13 l
 77.617 108.939 77.117 107.993 74.707 107.911 c 74.559 107.911 74.176 107.88
 74.176 107.337 c 74.176 107.083 74.355 106.99 74.598 106.99 c 75.543 106.99
 76.574 107.083 77.555 107.083 c 78.566 107.083 79.641 106.99 80.617 106.99
 c 80.766 106.99 81.145 106.99 81.145 107.583 c 81.145 107.911 80.816 107.911
 80.617 107.911 c 78.918 107.935 78.598 108.529 78.598 109.208 c 78.598 
109.415 78.621 109.564 78.719 109.888 c 82.738 126.048 l 82.781 126.048 
l 85.328 107.665 l 85.383 107.314 85.41 106.99 85.773 106.99 c 86.098 106.99
 86.273 107.314 86.422 107.517 c 98.402 126.294 l 98.426 126.294 l 94.191
 109.302 l 93.891 108.142 93.832 107.911 91.496 107.911 c 90.988 107.911
 90.668 107.911 90.668 107.337 c 90.668 106.99 91.02 106.99 91.113 106.99
 c 91.941 106.99 93.957 107.083 94.785 107.083 c 96.004 107.083 97.277 106.99
 98.492 106.99 c 98.672 106.99 99.051 106.99 99.051 107.583 c 99.051 107.911
 98.785 107.911 98.227 107.911 c 97.129 107.911 96.305 107.911 96.305 108.439
 c 96.305 108.56 96.305 108.615 96.453 109.154 c h
f
108.656 115.747 m 108.656 115.931 l 108.652 115.958 l 108.652 116.029 l
 108.645 116.044 l 108.645 116.075 l 108.641 116.095 l 108.641 116.107 l
 108.633 116.122 l 108.633 116.134 l 108.621 116.158 l 108.617 116.181 l
 108.594 116.22 l 108.582 116.236 l 108.566 116.255 l 108.551 116.267 l 
108.531 116.279 l 108.508 116.29 l 108.492 116.294 l 108.469 116.302 l 108.438
 116.314 l 108.406 116.314 l 108.395 116.318 l 108.379 116.318 l 108.367
 116.325 l 108.289 116.325 l 108.27 116.333 l 108.031 116.333 l 106.707 
115.021 104.824 115.005 103.973 115.005 c 103.973 114.259 l 104.473 114.259
 105.844 114.259 106.973 114.837 c 106.973 104.263 l 106.973 103.572 106.973
 103.306 104.902 103.306 c 104.121 103.306 l 104.121 102.56 l 104.492 102.579
 107.039 102.642 107.813 102.642 c 108.457 102.642 111.066 102.579 111.52
 102.56 c 111.52 103.306 l 110.73 103.306 l 108.656 103.306 108.656 103.572
 108.656 104.263 c h
f
204.371 124.954 m 204.395 125.048 l 204.418 125.146 l 204.441 125.236 l
 204.488 125.4 l 204.512 125.478 l 204.539 125.548 l 204.566 125.615 l 204.598
 125.681 l 204.625 125.747 l 204.668 125.798 l 204.703 125.853 l 204.75 
125.908 l 204.801 125.954 l 204.852 125.997 l 204.906 126.036 l 204.973 
126.075 l 205.043 126.111 l 205.121 126.138 l 205.203 126.169 l 205.293 
126.193 l 205.348 126.204 l 205.395 126.216 l 205.449 126.228 l 205.5 126.24
 l 205.563 126.247 l 205.621 126.259 l 205.68 126.263 l 205.746 126.271 
l 205.813 126.283 l 205.883 126.286 l 205.953 126.294 l 206.023 126.294 
l 206.102 126.298 l 206.18 126.306 l 206.262 126.31 l 206.438 126.31 l 206.523
 126.318 l 206.918 126.318 l 207.598 126.318 207.871 126.318 207.871 126.911
 c 207.871 127.24 207.574 127.24 207.066 127.24 c 203.152 127.24 l 202.383
 127.24 202.352 127.24 202.004 126.673 c 191.176 109.779 l 188.863 126.548
 l 188.766 127.24 188.715 127.24 187.938 127.24 c 183.875 127.24 l 183.32
 127.24 182.992 127.24 182.992 126.673 c 182.992 126.318 183.254 126.318
 183.852 126.318 c 184.238 126.318 184.766 126.294 185.125 126.263 c 185.594
 126.2 185.773 126.115 185.773 125.786 c 185.773 125.669 185.742 125.575
 185.66 125.224 c 181.895 110.13 l 181.594 108.939 181.094 107.993 178.684
 107.911 c 178.535 107.911 178.156 107.88 178.156 107.337 c 178.156 107.083
 178.336 106.99 178.578 106.99 c 179.523 106.99 180.555 107.083 181.535 
107.083 c 182.547 107.083 183.617 106.99 184.594 106.99 c 184.742 106.99
 185.125 106.99 185.125 107.583 c 185.125 107.911 184.797 107.911 184.594
 107.911 c 182.898 107.935 182.578 108.529 182.578 109.208 c 182.578 109.415
 182.602 109.564 182.695 109.888 c 186.719 126.048 l 186.762 126.048 l 189.309
 107.665 l 189.363 107.314 189.391 106.99 189.754 106.99 c 190.074 106.99
 190.254 107.314 190.402 107.517 c 202.383 126.294 l 202.406 126.294 l 198.168
 109.302 l 197.871 108.142 197.813 107.911 195.473 107.911 c 194.969 107.911
 194.645 107.911 194.645 107.337 c 194.645 106.99 194.996 106.99 195.094
 106.99 c 195.922 106.99 197.938 107.083 198.766 107.083 c 199.984 107.083
 201.258 106.99 202.473 106.99 c 202.652 106.99 203.031 106.99 203.031 107.583
 c 203.031 107.911 202.766 107.911 202.203 107.911 c 201.109 107.911 200.281
 107.911 200.281 108.439 c 200.281 108.56 200.281 108.615 200.43 109.154
 c h
f
216.16 106.341 m 215.453 106.341 l 215.398 105.88 215.184 104.654 214.918
 104.447 c 214.754 104.329 213.16 104.329 212.867 104.329 c 209.047 104.329
 l 211.227 106.251 211.953 106.825 213.195 107.802 c 214.73 109.036 216.16
 110.314 216.16 112.29 c 216.16 114.794 213.965 116.333 211.309 116.333 
c 208.738 116.333 206.996 114.529 206.996 112.622 c 206.996 111.564 207.887
 111.458 208.102 111.458 c 208.59 111.458 209.195 111.814 209.195 112.56
 c 209.195 112.927 209.047 113.654 207.973 113.654 c 208.613 115.122 210.023
 115.583 211 115.583 c 213.07 115.583 214.156 113.97 214.156 112.29 c 214.156
 110.482 212.867 109.052 212.203 108.31 c 207.211 103.368 l 206.996 103.185
 206.996 103.138 206.996 102.56 c 215.543 102.56 l h
f
434.73 124.954 m 434.754 125.048 l 434.781 125.146 l 434.805 125.236 l 
434.852 125.4 l 434.875 125.478 l 434.898 125.548 l 434.93 125.615 l 434.957
 125.681 l 434.988 125.747 l 435.031 125.798 l 435.066 125.853 l 435.113
 125.908 l 435.16 125.954 l 435.215 125.997 l 435.27 126.036 l 435.332 126.075
 l 435.406 126.111 l 435.48 126.138 l 435.566 126.169 l 435.656 126.193 
l 435.707 126.204 l 435.754 126.216 l 435.863 126.24 l 435.922 126.247 l
 435.98 126.259 l 436.043 126.263 l 436.105 126.271 l 436.172 126.283 l 
436.242 126.286 l 436.316 126.294 l 436.387 126.294 l 436.465 126.298 l 
436.543 126.306 l 436.625 126.31 l 436.797 126.31 l 436.887 126.318 l 437.277
 126.318 l 437.957 126.318 438.23 126.318 438.23 126.911 c 438.23 127.24
 437.934 127.24 437.43 127.24 c 433.512 127.24 l 432.746 127.24 432.715 
127.24 432.363 126.673 c 421.539 109.779 l 419.223 126.548 l 419.129 127.24
 419.074 127.24 418.301 127.24 c 414.234 127.24 l 413.684 127.24 413.355
 127.24 413.355 126.673 c 413.355 126.318 413.617 126.318 414.211 126.318
 c 414.598 126.318 415.129 126.294 415.484 126.263 c 415.957 126.2 416.133
 126.115 416.133 125.786 c 416.133 125.669 416.105 125.575 416.02 125.224
 c 412.254 110.13 l 411.957 108.939 411.457 107.993 409.047 107.911 c 408.898
 107.911 408.516 107.88 408.516 107.337 c 408.516 107.083 408.695 106.99
 408.938 106.99 c 409.887 106.99 410.914 107.083 411.898 107.083 c 412.91
 107.083 413.98 106.99 414.957 106.99 c 415.105 106.99 415.484 106.99 415.484
 107.583 c 415.484 107.911 415.16 107.911 414.957 107.911 c 413.262 107.935
 412.938 108.529 412.938 109.208 c 412.938 109.415 412.961 109.564 413.059
 109.888 c 417.082 126.048 l 417.121 126.048 l 419.668 107.665 l 419.723
 107.314 419.754 106.99 420.117 106.99 c 420.438 106.99 420.617 107.314 
420.766 107.517 c 432.746 126.294 l 432.77 126.294 l 428.531 109.302 l 428.234
 108.142 428.172 107.911 425.836 107.911 c 425.328 107.911 425.008 107.911
 425.008 107.337 c 425.008 106.99 425.359 106.99 425.453 106.99 c 426.281
 106.99 428.297 107.083 429.125 107.083 c 430.348 107.083 431.621 106.99
 432.832 106.99 c 433.012 106.99 433.395 106.99 433.395 107.583 c 433.395
 107.911 433.125 107.911 432.566 107.911 c 431.473 107.911 430.645 107.911
 430.645 108.439 c 430.645 108.56 430.645 108.615 430.793 109.154 c h
f
453.348 114.462 m 453.391 114.611 l 453.43 114.755 l 453.461 114.825 l 
453.484 114.892 l 453.516 114.962 l 453.543 115.029 l 453.578 115.095 l 
453.617 115.158 l 453.652 115.22 l 453.699 115.279 l 453.742 115.337 l 453.793
 115.392 l 453.84 115.45 l 453.902 115.497 l 453.961 115.552 l 454.031 115.599
 l 454.098 115.646 l 454.176 115.689 l 454.258 115.732 l 454.34 115.767 
l 454.43 115.802 l 454.531 115.833 l 454.633 115.861 l 454.746 115.892 l
 454.859 115.915 l 454.984 115.931 l 455.109 115.95 l 455.18 115.958 l 455.246
 115.962 l 455.316 115.97 l 455.391 115.974 l 455.465 115.974 l 455.543 
115.982 l 455.645 115.982 455.961 115.997 455.961 116.431 c 455.961 116.556
 455.859 116.724 455.645 116.724 c 454.965 116.724 454.191 116.642 453.492
 116.642 c 452.996 116.642 451.793 116.724 451.293 116.724 c 451.191 116.724
 450.871 116.724 450.871 116.267 c 450.871 115.997 451.145 115.982 451.344
 115.982 c 452.305 115.962 452.656 115.646 452.656 115.122 c 452.656 114.97
 452.641 114.857 452.578 114.63 c 450.316 105.595 l 445.051 116.368 l 444.887
 116.724 444.848 116.724 444.348 116.724 c 441.512 116.724 l 441.113 116.724
 440.844 116.724 440.844 116.267 c 440.844 115.982 441.094 115.982 441.527
 115.982 c 441.969 115.982 442.422 115.962 442.848 115.88 c 440.078 104.786
 l 439.891 103.993 439.539 103.368 437.922 103.306 c 437.773 103.306 437.488
 103.286 437.488 102.868 c 437.488 102.642 437.652 102.56 437.789 102.56
 c 438.48 102.56 439.242 102.642 439.953 102.642 c 440.453 102.642 441.648
 102.56 442.152 102.56 c 442.355 102.56 442.563 102.661 442.563 103.001 
c 442.563 103.286 442.313 103.306 442.086 103.306 c 440.777 103.353 440.777
 103.892 440.777 104.177 c 440.777 104.263 440.777 104.365 440.863 104.704
 c 443.523 115.306 l 449.574 102.919 l 449.742 102.579 449.824 102.56 450.027
 102.56 c 450.367 102.56 450.367 102.626 450.469 103.001 c h
f
93.73 42.411 m 96.277 42.411 l 96.871 42.411 97.168 42.411 97.168 43.009
 c 97.168 43.337 96.871 43.337 96.371 43.337 c 93.906 43.337 l 94.527 46.724
 l 94.652 47.341 95.066 49.443 95.246 49.798 c 95.516 50.365 96.016 50.81
 96.641 50.81 c 96.75 50.81 97.527 50.81 98.09 50.271 c 96.789 50.161 96.488
 49.118 96.488 48.673 c 96.488 47.997 97.02 47.638 97.59 47.638 c 98.359
 47.638 99.215 48.294 99.215 49.419 c 99.215 50.783 97.848 51.458 96.641
 51.458 c 95.629 51.458 93.758 50.931 92.871 47.997 c 92.699 47.372 92.605
 47.072 91.895 43.337 c 89.855 43.337 l 89.281 43.337 88.961 43.337 88.961
 42.775 c 88.961 42.411 89.23 42.411 89.789 42.411 c 91.746 42.411 l 89.516
 30.708 l 88.984 27.833 88.484 25.126 86.938 25.126 c 86.82 25.126 86.086
 25.126 85.516 25.665 c 86.883 25.751 87.148 26.822 87.148 27.267 c 87.148
 27.947 86.617 28.31 86.047 28.31 c 85.277 28.31 84.422 27.654 84.422 26.525
 c 84.422 25.189 85.723 24.478 86.938 24.478 c 88.57 24.478 89.758 26.228
 90.289 27.357 c 91.234 29.224 91.926 32.81 91.957 33.021 c h
f
150.48 64.154 m 150.504 64.251 l 150.527 64.345 l 150.551 64.435 l 150.574
 64.517 l 150.598 64.603 l 150.645 64.751 l 150.676 64.814 l 150.703 64.88
 l 150.734 64.947 l 150.77 65.001 l 150.813 65.052 l 150.855 65.107 l 150.902
 65.154 l 150.953 65.197 l 151.008 65.24 l 151.141 65.31 l 151.215 65.337
 l 151.301 65.368 l 151.391 65.392 l 151.484 65.415 l 151.539 65.427 l 151.59
 65.439 l 151.645 65.447 l 151.703 65.458 l 151.766 65.462 l 151.824 65.47
 l 151.891 65.482 l 151.953 65.49 l 152.027 65.493 l 152.098 65.493 l 152.176
 65.501 l 152.254 65.505 l 152.328 65.513 l 152.496 65.513 l 152.586 65.517
 l 152.965 65.517 l 153.738 65.517 153.973 65.517 153.973 66.115 c 153.973
 66.439 153.645 66.439 153.555 66.439 c 152.727 66.439 150.598 66.345 149.758
 66.345 c 148.902 66.345 146.793 66.439 145.938 66.439 c 145.707 66.439 
145.371 66.439 145.371 65.845 c 145.371 65.517 145.641 65.517 146.207 65.517
 c 146.266 65.517 146.832 65.517 147.332 65.462 c 147.859 65.4 148.133 65.368
 148.133 64.99 c 148.133 64.868 148.105 64.802 148.008 64.423 c 146.234 
57.185 l 137.191 57.185 l 138.945 64.154 l 139.207 65.22 139.297 65.517 
141.426 65.517 c 142.199 65.517 142.445 65.517 142.445 66.115 c 142.445 
66.439 142.117 66.439 142.023 66.439 c 141.195 66.439 139.059 66.345 138.23
 66.345 c 137.375 66.345 135.262 66.439 134.41 66.439 c 134.168 66.439 133.84
 66.439 133.84 65.845 c 133.84 65.517 134.113 65.517 134.668 65.517 c 134.73
 65.517 135.293 65.517 135.805 65.462 c 136.332 65.4 136.602 65.368 136.602
 64.99 c 136.602 64.868 136.566 64.775 136.48 64.423 c 132.512 48.501 l 
132.215 47.341 132.148 47.111 129.805 47.111 c 129.273 47.111 129.008 47.111
 129.008 46.517 c 129.008 46.189 129.371 46.189 129.422 46.189 c 130.25 
46.189 132.363 46.283 133.191 46.283 c 133.816 46.283 134.465 46.243 135.09
 46.243 c 135.738 46.243 136.387 46.189 137.012 46.189 c 137.254 46.189 
137.605 46.189 137.605 46.783 c 137.605 47.111 137.34 47.111 136.777 47.111
 c 135.684 47.111 134.855 47.111 134.855 47.642 c 134.855 47.814 134.91 
47.962 134.941 48.142 c 136.957 56.271 l 145.992 56.271 l 144.746 51.349
 144.07 48.533 143.949 48.087 c 143.66 47.134 143.094 47.111 141.254 47.111
 c 140.809 47.111 140.547 47.111 140.547 46.517 c 140.547 46.189 140.898
 46.189 140.957 46.189 c 141.789 46.189 143.891 46.283 144.719 46.283 c 
145.344 46.283 145.992 46.243 146.617 46.243 c 147.277 46.243 147.926 46.189
 148.551 46.189 c 148.781 46.189 149.141 46.189 149.141 46.783 c 149.141
 47.111 148.879 47.111 148.305 47.111 c 147.211 47.111 146.383 47.111 146.383
 47.642 c 146.383 47.814 146.438 47.962 146.469 48.142 c h
f
159.434 54.947 m 159.434 55.173 l 159.43 55.193 l 159.43 55.247 l 159.422
 55.263 l 159.422 55.275 l 159.418 55.294 l 159.418 55.306 l 159.41 55.322
 l 159.41 55.333 l 159.406 55.361 l 159.387 55.4 l 159.375 55.419 l 159.359
 55.435 l 159.348 55.454 l 159.309 55.478 l 159.293 55.49 l 159.27 55.497
 l 159.246 55.501 l 159.223 55.513 l 159.191 55.513 l 159.172 55.521 l 159.16
 55.521 l 159.145 55.525 l 159.07 55.525 l 159.047 55.533 l 158.816 55.533
 l 157.484 54.224 155.609 54.204 154.75 54.204 c 154.75 53.462 l 155.25 
53.462 156.621 53.462 157.758 54.036 c 157.758 43.462 l 157.758 42.771 157.758
 42.505 155.68 42.505 c 154.902 42.505 l 154.902 41.759 l 155.27 41.779 
157.824 41.845 158.59 41.845 c 159.234 41.845 161.844 41.779 162.305 41.759
 c 162.305 42.505 l 161.512 42.505 l 159.434 42.505 159.434 42.771 159.434
 43.462 c h
f
244.727 64.154 m 244.75 64.251 l 244.773 64.345 l 244.797 64.435 l 244.82
 64.517 l 244.844 64.603 l 244.871 64.677 l 244.895 64.751 l 244.922 64.814
 l 244.953 64.88 l 244.98 64.947 l 245.02 65.001 l 245.059 65.052 l 245.102
 65.107 l 245.148 65.154 l 245.258 65.24 l 245.32 65.275 l 245.387 65.31
 l 245.465 65.337 l 245.547 65.368 l 245.637 65.392 l 245.73 65.415 l 245.84
 65.439 l 245.895 65.447 l 245.953 65.458 l 246.012 65.462 l 246.07 65.47
 l 246.137 65.482 l 246.203 65.49 l 246.273 65.493 l 246.344 65.493 l 246.422
 65.501 l 246.5 65.505 l 246.578 65.513 l 246.742 65.513 l 246.832 65.517
 l 247.215 65.517 l 247.988 65.517 248.219 65.517 248.219 66.115 c 248.219
 66.439 247.891 66.439 247.805 66.439 c 246.977 66.439 244.844 66.345 244.008
 66.345 c 243.148 66.345 241.043 66.439 240.188 66.439 c 239.953 66.439 
239.621 66.439 239.621 65.845 c 239.621 65.517 239.887 65.517 240.453 65.517
 c 240.512 65.517 241.078 65.517 241.578 65.462 c 242.109 65.4 242.383 65.368
 242.383 64.99 c 242.383 64.868 242.352 64.802 242.258 64.423 c 240.484 
57.185 l 231.438 57.185 l 233.191 64.154 l 233.453 65.22 233.543 65.517 
235.676 65.517 c 236.449 65.517 236.691 65.517 236.691 66.115 c 236.691 
66.439 236.363 66.439 236.27 66.439 c 235.441 66.439 233.305 66.345 232.48
 66.345 c 231.621 66.345 229.508 66.439 228.656 66.439 c 228.414 66.439 
228.086 66.439 228.086 65.845 c 228.086 65.517 228.359 65.517 228.914 65.517
 c 228.98 65.517 229.539 65.517 230.051 65.462 c 230.582 65.4 230.848 65.368
 230.848 64.99 c 230.848 64.868 230.813 64.775 230.73 64.423 c 226.758 48.501
 l 226.461 47.341 226.398 47.111 224.051 47.111 c 223.523 47.111 223.254
 47.111 223.254 46.517 c 223.254 46.189 223.617 46.189 223.672 46.189 c 
224.5 46.189 226.609 46.283 227.438 46.283 c 228.063 46.283 228.711 46.243
 229.336 46.243 c 229.984 46.243 230.633 46.189 231.258 46.189 c 231.504
 46.189 231.855 46.189 231.855 46.783 c 231.855 47.111 231.586 47.111 231.027
 47.111 c 229.934 47.111 229.105 47.111 229.105 47.642 c 229.105 47.814 
229.156 47.962 229.188 48.142 c 231.207 56.271 l 240.238 56.271 l 238.996
 51.349 238.316 48.533 238.199 48.087 c 237.906 47.134 237.34 47.111 235.504
 47.111 c 235.055 47.111 234.793 47.111 234.793 46.517 c 234.793 46.189 
235.145 46.189 235.203 46.189 c 236.039 46.189 238.137 46.283 238.965 46.283
 c 239.59 46.283 240.238 46.243 240.863 46.243 c 241.523 46.243 242.172 
46.189 242.797 46.189 c 243.031 46.189 243.387 46.189 243.387 46.783 c 243.387
 47.111 243.125 47.111 242.555 47.111 c 241.461 47.111 240.633 47.111 240.633
 47.642 c 240.633 47.814 240.688 47.962 240.715 48.142 c h
f
257.211 45.54 m 256.504 45.54 l 256.445 45.079 256.234 43.857 255.961 43.646
 c 255.809 43.529 254.207 43.529 253.914 43.529 c 250.094 43.529 l 252.273
 45.45 253 46.029 254.242 47.005 c 255.777 48.236 257.211 49.513 257.211
 51.49 c 257.211 53.997 255.016 55.533 252.355 55.533 c 249.789 55.533 248.043
 53.728 248.043 51.825 c 248.043 50.763 248.934 50.658 249.148 50.658 c 
249.641 50.658 250.242 51.013 250.242 51.759 c 250.242 52.126 250.094 52.853
 249.016 52.853 c 249.66 54.322 251.07 54.783 252.047 54.783 c 254.125 54.783
 255.199 53.169 255.199 51.49 c 255.199 49.681 253.914 48.251 253.25 47.509
 c 248.254 42.568 l 248.043 42.384 248.043 42.337 248.043 41.759 c 256.586
 41.759 l h
f
351.117 64.154 m 351.141 64.251 l 351.164 64.345 l 351.188 64.435 l 351.211
 64.517 l 351.234 64.603 l 351.281 64.751 l 351.313 64.814 l 351.344 64.88
 l 351.371 64.947 l 351.406 65.001 l 351.449 65.052 l 351.492 65.107 l 351.539
 65.154 l 351.59 65.197 l 351.645 65.24 l 351.777 65.31 l 351.855 65.337
 l 351.938 65.368 l 352.027 65.392 l 352.121 65.415 l 352.23 65.439 l 352.281
 65.447 l 352.34 65.458 l 352.402 65.462 l 352.461 65.47 l 352.527 65.482
 l 352.59 65.49 l 352.664 65.493 l 352.734 65.493 l 352.813 65.501 l 352.891
 65.505 l 352.965 65.513 l 353.133 65.513 l 353.223 65.517 l 353.602 65.517
 l 354.375 65.517 354.609 65.517 354.609 66.115 c 354.609 66.439 354.281
 66.439 354.191 66.439 c 353.367 66.439 351.234 66.345 350.395 66.345 c 
349.539 66.345 347.434 66.439 346.574 66.439 c 346.344 66.439 346.008 66.439
 346.008 65.845 c 346.008 65.517 346.277 65.517 346.844 65.517 c 346.902
 65.517 347.469 65.517 347.969 65.462 c 348.496 65.4 348.77 65.368 348.77
 64.99 c 348.77 64.868 348.742 64.802 348.645 64.423 c 346.871 57.185 l 
337.828 57.185 l 339.582 64.154 l 339.844 65.22 339.934 65.517 342.063 65.517
 c 342.836 65.517 343.082 65.517 343.082 66.115 c 343.082 66.439 342.754
 66.439 342.66 66.439 c 341.832 66.439 339.695 66.345 338.867 66.345 c 338.012
 66.345 335.898 66.439 335.047 66.439 c 334.805 66.439 334.477 66.439 334.477
 65.845 c 334.477 65.517 334.75 65.517 335.305 65.517 c 335.367 65.517 335.93
 65.517 336.441 65.462 c 336.969 65.4 337.238 65.368 337.238 64.99 c 337.238
 64.868 337.203 64.775 337.117 64.423 c 333.148 48.501 l 332.852 47.341 
332.785 47.111 330.441 47.111 c 329.91 47.111 329.645 47.111 329.645 46.517
 c 329.645 46.189 330.008 46.189 330.059 46.189 c 330.887 46.189 333 46.283
 333.828 46.283 c 334.453 46.283 335.102 46.243 335.727 46.243 c 336.375
 46.243 337.023 46.189 337.648 46.189 c 337.891 46.189 338.242 46.189 338.242
 46.783 c 338.242 47.111 337.977 47.111 337.414 47.111 c 336.32 47.111 335.492
 47.111 335.492 47.642 c 335.492 47.814 335.547 47.962 335.578 48.142 c 
337.594 56.271 l 346.629 56.271 l 345.383 51.349 344.707 48.533 344.586 
48.087 c 344.297 47.134 343.73 47.111 341.891 47.111 c 341.445 47.111 341.184
 47.111 341.184 46.517 c 341.184 46.189 341.535 46.189 341.594 46.189 c 
342.426 46.189 344.527 46.283 345.355 46.283 c 345.98 46.283 346.629 46.243
 347.254 46.243 c 347.914 46.243 348.563 46.189 349.188 46.189 c 349.418
 46.189 349.777 46.189 349.777 46.783 c 349.777 47.111 349.516 47.111 348.945
 47.111 c 347.848 47.111 347.02 47.111 347.02 47.642 c 347.02 47.814 347.074
 47.962 347.105 48.142 c h
f
370.422 53.661 m 370.465 53.81 l 370.512 53.954 l 370.535 54.025 l 370.559
 54.091 l 370.59 54.161 l 370.617 54.228 l 370.688 54.361 l 370.773 54.478
 l 370.82 54.536 l 370.867 54.591 l 370.922 54.65 l 370.977 54.697 l 371.039
 54.751 l 371.105 54.798 l 371.176 54.849 l 371.25 54.888 l 371.332 54.931
 l 371.414 54.966 l 371.512 55.001 l 371.605 55.033 l 371.707 55.06 l 371.82
 55.091 l 371.934 55.115 l 372.059 55.134 l 372.188 55.15 l 372.254 55.158
 l 372.324 55.161 l 372.398 55.169 l 372.469 55.173 l 372.539 55.173 l 372.617
 55.181 l 372.719 55.181 373.039 55.197 373.039 55.634 c 373.039 55.759 
372.934 55.923 372.719 55.923 c 372.039 55.923 371.273 55.841 370.563 55.841
 c 370.07 55.841 368.875 55.923 368.367 55.923 c 368.266 55.923 367.953 
55.923 367.953 55.466 c 367.953 55.197 368.219 55.181 368.414 55.181 c 369.379
 55.161 369.738 54.849 369.738 54.322 c 369.738 54.169 369.719 54.056 369.652
 53.829 c 367.391 44.794 l 362.133 55.568 l 361.965 55.923 361.922 55.923
 361.422 55.923 c 358.586 55.923 l 358.188 55.923 357.918 55.923 357.918
 55.466 c 357.918 55.181 358.168 55.181 358.609 55.181 c 359.043 55.181 
359.5 55.161 359.922 55.079 c 357.156 43.986 l 356.973 43.193 356.613 42.568
 354.996 42.505 c 354.848 42.505 354.563 42.486 354.563 42.072 c 354.563
 41.845 354.727 41.759 354.863 41.759 c 355.555 41.759 356.316 41.845 357.023
 41.845 c 357.523 41.845 358.727 41.759 359.227 41.759 c 359.434 41.759 
359.637 41.861 359.637 42.2 c 359.637 42.486 359.387 42.505 359.16 42.505
 c 357.852 42.552 357.852 43.095 357.852 43.38 c 357.852 43.462 357.852 
43.564 357.938 43.904 c 360.598 54.509 l 366.648 42.118 l 366.816 41.779
 366.898 41.759 367.105 41.759 c 367.441 41.759 367.441 41.825 367.543 42.2
 c h
f
389.547 46.45 m 389.75 46.45 l 389.785 46.454 l 389.824 46.454 l 389.852
 46.462 l 389.887 46.462 l 389.922 46.466 l 389.961 46.474 l 389.996 46.478
 l 390.023 46.49 l 390.055 46.497 l 390.09 46.509 l 390.121 46.521 l 390.148
 46.54 l 390.18 46.552 l 390.203 46.568 l 390.227 46.591 l 390.25 46.611
 l 390.285 46.646 l 390.293 46.658 l 390.305 46.677 l 390.309 46.689 l 390.324
 46.7 l 390.328 46.716 l 390.336 46.736 l 390.348 46.747 l 390.352 46.767
 l 390.359 46.783 l 390.359 46.802 l 390.363 46.818 l 390.371 46.841 l 390.371
 46.861 l 390.375 46.884 l 390.375 46.95 l 390.375 47.462 389.906 47.462
 389.547 47.462 c 377.188 47.462 l 376.855 47.462 376.367 47.462 376.367
 46.966 c 376.367 46.45 376.836 46.45 377.188 46.45 c h
f
399.566 54.947 m 399.566 55.115 l 399.559 55.134 l 399.559 55.208 l 399.555
 55.228 l 399.555 55.263 l 399.547 55.275 l 399.547 55.306 l 399.539 55.322
 l 399.535 55.333 l 399.527 55.361 l 399.523 55.384 l 399.512 55.4 l 399.5
 55.419 l 399.488 55.435 l 399.457 55.466 l 399.441 55.478 l 399.414 55.49
 l 399.398 55.497 l 399.375 55.501 l 399.344 55.513 l 399.316 55.513 l 399.305
 55.521 l 399.285 55.521 l 399.266 55.525 l 399.195 55.525 l 399.18 55.533
 l 398.941 55.533 l 397.613 54.224 395.73 54.204 394.875 54.204 c 394.875
 53.462 l 395.383 53.462 396.75 53.462 397.879 54.036 c 397.879 43.462 l
 397.879 42.771 397.879 42.505 395.809 42.505 c 395.023 42.505 l 395.023
 41.759 l 395.398 41.779 397.945 41.845 398.719 41.845 c 399.355 41.845 
401.977 41.779 402.426 41.759 c 402.426 42.505 l 401.637 42.505 l 399.566
 42.505 399.566 42.771 399.566 43.462 c h
f
479.883 64.154 m 479.91 64.251 l 479.934 64.345 l 479.957 64.435 l 479.98
 64.517 l 480.004 64.603 l 480.051 64.751 l 480.082 64.814 l 480.109 64.88
 l 480.141 64.947 l 480.176 65.001 l 480.219 65.052 l 480.258 65.107 l 480.309
 65.154 l 480.359 65.197 l 480.414 65.24 l 480.547 65.31 l 480.621 65.337
 l 480.707 65.368 l 480.797 65.392 l 480.891 65.415 l 480.945 65.427 l 480.996
 65.439 l 481.051 65.447 l 481.109 65.458 l 481.168 65.462 l 481.23 65.47
 l 481.293 65.482 l 481.359 65.49 l 481.434 65.493 l 481.504 65.493 l 481.582
 65.501 l 481.656 65.505 l 481.734 65.513 l 481.902 65.513 l 481.992 65.517
 l 482.371 65.517 l 483.145 65.517 483.379 65.517 483.379 66.115 c 483.379
 66.439 483.051 66.439 482.961 66.439 c 482.133 66.439 480.004 66.345 479.164
 66.345 c 478.309 66.345 476.199 66.439 475.344 66.439 c 475.113 66.439 
474.777 66.439 474.777 65.845 c 474.777 65.517 475.047 65.517 475.613 65.517
 c 475.672 65.517 476.234 65.517 476.734 65.462 c 477.266 65.4 477.539 65.368
 477.539 64.99 c 477.539 64.868 477.512 64.802 477.414 64.423 c 475.641 
57.185 l 466.594 57.185 l 468.352 64.154 l 468.613 65.22 468.703 65.517 
470.832 65.517 c 471.605 65.517 471.852 65.517 471.852 66.115 c 471.852 
66.439 471.523 66.439 471.426 66.439 c 470.602 66.439 468.465 66.345 467.637
 66.345 c 466.781 66.345 464.668 66.439 463.816 66.439 c 463.57 66.439 463.246
 66.439 463.246 65.845 c 463.246 65.517 463.52 65.517 464.07 65.517 c 464.137
 65.517 464.695 65.517 465.207 65.462 c 465.738 65.4 466.008 65.368 466.008
 64.99 c 466.008 64.868 465.969 64.775 465.887 64.423 c 461.918 48.501 l
 461.621 47.341 461.555 47.111 459.211 47.111 c 458.68 47.111 458.414 47.111
 458.414 46.517 c 458.414 46.189 458.773 46.189 458.828 46.189 c 459.656
 46.189 461.77 46.283 462.598 46.283 c 463.223 46.283 463.871 46.243 464.496
 46.243 c 465.145 46.243 465.793 46.189 466.418 46.189 c 466.66 46.189 467.012
 46.189 467.012 46.783 c 467.012 47.111 466.742 47.111 466.184 47.111 c 
465.09 47.111 464.262 47.111 464.262 47.642 c 464.262 47.814 464.316 47.962
 464.348 48.142 c 466.363 56.271 l 475.398 56.271 l 474.152 51.349 473.477
 48.533 473.355 48.087 c 473.063 47.134 472.5 47.111 470.66 47.111 c 470.215
 47.111 469.953 47.111 469.953 46.517 c 469.953 46.189 470.305 46.189 470.363
 46.189 c 471.195 46.189 473.297 46.283 474.125 46.283 c 474.75 46.283 475.398
 46.243 476.023 46.243 c 476.684 46.243 477.332 46.189 477.957 46.189 c 
478.188 46.189 478.547 46.189 478.547 46.783 c 478.547 47.111 478.285 47.111
 477.711 47.111 c 476.617 47.111 475.789 47.111 475.789 47.642 c 475.789
 47.814 475.844 47.962 475.875 48.142 c h
f
499.191 53.661 m 499.23 53.81 l 499.281 53.954 l 499.305 54.025 l 499.328
 54.091 l 499.355 54.161 l 499.387 54.228 l 499.457 54.361 l 499.543 54.478
 l 499.59 54.536 l 499.637 54.591 l 499.691 54.65 l 499.742 54.697 l 499.809
 54.751 l 499.875 54.798 l 499.945 54.849 l 500.016 54.888 l 500.102 54.931
 l 500.184 54.966 l 500.281 55.001 l 500.375 55.033 l 500.477 55.06 l 500.59
 55.091 l 500.703 55.115 l 500.828 55.134 l 500.957 55.15 l 501.023 55.158
 l 501.094 55.161 l 501.168 55.169 l 501.238 55.173 l 501.309 55.173 l 501.387
 55.181 l 501.488 55.181 501.809 55.197 501.809 55.634 c 501.809 55.759 
501.703 55.923 501.488 55.923 c 500.809 55.923 500.043 55.841 499.332 55.841
 c 498.84 55.841 497.645 55.923 497.137 55.923 c 497.035 55.923 496.719 
55.923 496.719 55.466 c 496.719 55.197 496.988 55.181 497.184 55.181 c 498.148
 55.161 498.504 54.849 498.504 54.322 c 498.504 54.169 498.488 54.056 498.422
 53.829 c 496.16 44.794 l 490.898 55.568 l 490.734 55.923 490.691 55.923
 490.191 55.923 c 487.352 55.923 l 486.953 55.923 486.688 55.923 486.688
 55.466 c 486.688 55.181 486.938 55.181 487.379 55.181 c 487.813 55.181 
488.27 55.161 488.691 55.079 c 485.926 43.986 l 485.742 43.193 485.383 42.568
 483.766 42.505 c 483.617 42.505 483.332 42.486 483.332 42.072 c 483.332
 41.845 483.496 41.759 483.633 41.759 c 484.324 41.759 485.086 41.845 485.793
 41.845 c 486.293 41.845 487.496 41.759 487.996 41.759 c 488.203 41.759 
488.406 41.861 488.406 42.2 c 488.406 42.486 488.156 42.505 487.93 42.505
 c 486.621 42.552 486.621 43.095 486.621 43.38 c 486.621 43.462 486.621 
43.564 486.703 43.904 c 489.363 54.509 l 495.418 42.118 l 495.582 41.779
 495.668 41.759 495.875 41.759 c 496.207 41.759 496.207 41.825 496.309 42.2
 c h
f
0.749907 w
q 1 0 0 -1 0 127.270805 cm
176.848 51.629 m 176.848 126.621 l 215.949 103.59 l 215.949 74.664 l h
S Q
197.336 42.411 m 199.883 42.411 l 200.48 42.411 200.777 42.411 200.777 
43.009 c 200.777 43.337 200.48 43.337 199.98 43.337 c 197.516 43.337 l 198.133
 46.724 l 198.258 47.341 198.676 49.443 198.855 49.798 c 199.121 50.365 
199.621 50.81 200.246 50.81 c 200.359 50.81 201.133 50.81 201.699 50.271
 c 200.395 50.161 200.098 49.118 200.098 48.673 c 200.098 47.997 200.629
 47.638 201.199 47.638 c 201.965 47.638 202.824 48.294 202.824 49.419 c 
202.824 50.783 201.453 51.458 200.246 51.458 c 199.234 51.458 197.367 50.931
 196.48 47.997 c 196.309 47.372 196.211 47.072 195.504 43.337 c 193.461 
43.337 l 192.891 43.337 192.57 43.337 192.57 42.775 c 192.57 42.411 192.836
 42.411 193.398 42.411 c 195.355 42.411 l 193.125 30.708 l 192.594 27.833
 192.094 25.126 190.547 25.126 c 190.426 25.126 189.695 25.126 189.125 25.665
 c 190.492 25.751 190.754 26.822 190.754 27.267 c 190.754 27.947 190.227
 28.31 189.652 28.31 c 188.887 28.31 188.027 27.654 188.027 26.525 c 188.027
 25.189 189.332 24.478 190.547 24.478 c 192.176 24.478 193.367 26.228 193.898
 27.357 c 194.844 29.224 195.535 32.81 195.563 33.021 c h
f
0.749907 w
q 1 0 0 -1 0 127.270805 cm
407.207 51.629 m 407.207 126.621 l 446.309 103.59 l 446.309 74.664 l h
S Q
427.695 42.411 m 430.242 42.411 l 430.84 42.411 431.137 42.411 431.137 
43.009 c 431.137 43.337 430.84 43.337 430.34 43.337 c 427.875 43.337 l 428.492
 46.724 l 428.617 47.341 429.035 49.443 429.215 49.798 c 429.48 50.365 429.98
 50.81 430.605 50.81 c 430.719 50.81 431.492 50.81 432.059 50.271 c 430.754
 50.161 430.457 49.118 430.457 48.673 c 430.457 47.997 430.988 47.638 431.559
 47.638 c 432.324 47.638 433.184 48.294 433.184 49.419 c 433.184 50.783 
431.813 51.458 430.605 51.458 c 429.594 51.458 427.727 50.931 426.84 47.997
 c 426.668 47.372 426.57 47.072 425.863 43.337 c 423.82 43.337 l 423.25 
43.337 422.93 43.337 422.93 42.775 c 422.93 42.411 423.195 42.411 423.758
 42.411 c 425.715 42.411 l 423.48 30.708 l 422.953 27.833 422.453 25.126
 420.906 25.126 c 420.785 25.126 420.055 25.126 419.484 25.665 c 420.852
 25.751 421.113 26.822 421.113 27.267 c 421.113 27.947 420.586 28.31 420.012
 28.31 c 419.246 28.31 418.387 27.654 418.387 26.525 c 418.387 25.189 419.691
 24.478 420.906 24.478 c 422.535 24.478 423.727 26.228 424.258 27.357 c 
425.203 29.224 425.895 32.81 425.922 33.021 c h
f
1.6 w
q 1 0 0 -1 0 127.270805 cm
36.961 89.91 m 71.359 89.996 l S Q
64.961 37.29 m 61.754 34.099 l 72.961 37.271 l 61.77 40.497 l h
f*
0.799998 w
q -1 0.00247677 0.00247677 1 0 127.270805 cm
-65.183 -89.819 m -61.984 -93.018 l -73.183 -89.819 l -61.984 -86.62 l 
h
S Q
1.6 w
q 1 0 0 -1 0 127.270805 cm
112.105 89.91 m 174.984 90.016 l S Q
168.586 37.263 m 165.379 34.072 l 176.586 37.251 l 165.391 40.47 l h
f*
0.799999 w
q -1 0.00168816 0.00168816 1 0 127.270805 cm
-168.737 -89.723 m -165.536 -92.92 l -176.737 -89.721 l -165.537 -86.521
 l h
S Q
1.6 w
q 1 0 0 -1 0 127.270805 cm
216.09 90.012 m 280.137 89.844 l S Q
273.734 37.411 m 270.543 34.2 l 281.734 37.431 l 270.527 40.603 l h
f*
0.799997 w
q -1 -0.00261268 -0.00261268 1 0 127.270805 cm
-273.498 -90.574 m -270.298 -93.777 l -281.498 -90.575 l -270.299 -87.374
 l h
S Q
1.6 w
q 1 0 0 -1 0 127.270805 cm
324.668 89.91 m 405.359 89.91 l S Q
398.957 37.361 m 395.758 34.161 l 406.957 37.361 l 395.758 40.56 l h
f*
0.8 w
q -1 -0.00000991467 -0.00000991467 1 0 127.270805 cm
-398.956 -89.914 m -395.757 -93.113 l -406.956 -89.914 l -395.757 -86.715
 l h
S Q
1.6 w
q 1 0 0 -1 0 127.270805 cm
446.211 89.809 m 510.461 89.844 l S Q
504.063 37.431 m 500.859 34.232 l 512.063 37.427 l 500.863 40.63 l h
f*
0.8 w
q -1 0.000540392 0.000540392 1 0 127.270805 cm
-504.111 -89.567 m -500.91 -92.768 l -512.111 -89.567 l -500.91 -86.37 
l h
S Q
1.6 w
q 1 0 0 -1 0 127.270805 cm
91.59 22.66 m 91.59 60.777 l S Q
91.59 72.896 m 88.391 76.095 l 91.59 64.896 l 94.789 76.095 l h
f*
0.8 w
q -0.000000000000000184 1 1 0.000000000000000184 0 127.270805 cm
-54.375 91.59 m -51.176 88.391 l -62.375 91.59 l -51.176 94.789 l h
S Q
1.6 w
q 1 0 0 -1 0 127.270805 cm
195.676 22.66 m 195.676 60.777 l S Q
195.676 72.896 m 192.477 76.095 l 195.676 64.896 l 198.875 76.095 l h
f*
0.8 w
q -0.000000000000000184 1 1 0.000000000000000184 0 127.270805 cm
-54.375 195.676 m -51.176 192.477 l -62.375 195.676 l -51.176 198.875 l
 h
S Q
1.6 w
q 1 0 0 -1 0 127.270805 cm
425.961 22.66 m 425.961 60.777 l S Q
425.961 72.896 m 422.762 76.095 l 425.961 64.896 l 429.16 76.095 l h
f*
0.8 w
q -0.000000000000000184 1 1 0.000000000000000184 0 127.270805 cm
-54.375 425.961 m -51.176 422.762 l -62.375 425.961 l -51.176 429.16 l 
h
S Q
292.785 37.564 m 292.785 37.634 l 292.781 37.708 l 292.77 37.775 l 292.762
 37.845 l 292.746 37.908 l 292.723 37.974 l 292.703 38.036 l 292.676 38.103
 l 292.648 38.165 l 292.617 38.22 l 292.586 38.279 l 292.551 38.337 l 292.512
 38.392 l 292.473 38.443 l 292.422 38.493 l 292.383 38.544 l 292.328 38.591
 l 292.281 38.63 l 292.23 38.673 l 292.176 38.712 l 292.117 38.747 l 292.063
 38.783 l 291.996 38.818 l 291.941 38.841 l 291.875 38.868 l 291.809 38.888
 l 291.746 38.911 l 291.676 38.927 l 291.609 38.939 l 291.539 38.947 l 291.473
 38.954 l 291.398 38.954 l 290.641 38.954 290.012 38.322 290.012 37.564 
c 290.012 36.806 290.641 36.177 291.398 36.177 c 292.16 36.177 292.785 36.806
 292.785 37.564 c h
f
304.395 37.564 m 304.395 37.634 l 304.391 37.708 l 304.379 37.775 l 304.367
 37.845 l 304.352 37.908 l 304.332 37.974 l 304.309 38.036 l 304.285 38.103
 l 304.258 38.165 l 304.227 38.22 l 304.195 38.279 l 304.156 38.337 l 304.117
 38.392 l 304.078 38.443 l 303.984 38.544 l 303.938 38.591 l 303.891 38.63
 l 303.836 38.673 l 303.777 38.712 l 303.727 38.747 l 303.668 38.783 l 303.605
 38.818 l 303.547 38.841 l 303.484 38.868 l 303.418 38.888 l 303.352 38.911
 l 303.285 38.927 l 303.215 38.939 l 303.148 38.947 l 303.078 38.954 l 303.008
 38.954 l 302.25 38.954 301.617 38.322 301.617 37.564 c 301.617 36.806 302.25
 36.177 303.008 36.177 c 303.77 36.177 304.395 36.806 304.395 37.564 c h
f
315.996 37.564 m 315.996 37.634 l 315.992 37.708 l 315.98 37.775 l 315.969
 37.845 l 315.953 37.908 l 315.934 37.974 l 315.914 38.036 l 315.891 38.103
 l 315.859 38.165 l 315.828 38.22 l 315.797 38.279 l 315.762 38.337 l 315.723
 38.392 l 315.68 38.443 l 315.641 38.493 l 315.594 38.544 l 315.543 38.591
 l 315.492 38.63 l 315.441 38.673 l 315.387 38.712 l 315.27 38.783 l 315.215
 38.818 l 315.152 38.841 l 315.086 38.868 l 315.023 38.888 l 314.957 38.911
 l 314.887 38.927 l 314.82 38.939 l 314.75 38.947 l 314.684 38.954 l 314.609
 38.954 l 313.855 38.954 313.223 38.322 313.223 37.564 c 313.223 36.806 
313.855 36.177 314.609 36.177 c 315.375 36.177 315.996 36.806 315.996 37.564
 c h
f
Q Q
showpage
%%Trailer
count op_count sub {pop} repeat
countdictstack dict_count sub {end} repeat
cairo_eps_state restore
%%EOF
